^C:\Users\gabor\Downloads\of_v0.10.1_vs2017_release\apps\myApps_2\CP2_MeshShaderGeco_Merge_7\CP2_MeshShaderGeco_Merge_7.vcxproj
C:\Users\gabor\Downloads\of_v0.10.1_vs2017_release\apps\myApps_2\CP2_MeshShaderGeco_Merge_7\bin\CP2_MeshShaderGeco_Merge_7_debug.lib
C:\Users\gabor\Downloads\of_v0.10.1_vs2017_release\apps\myApps_2\CP2_MeshShaderGeco_Merge_7\bin\CP2_MeshShaderGeco_Merge_7_debug.exp
^C:\Users\gabor\Downloads\of_v0.10.1_vs2017_release\apps\myApps_2\CP2_MeshShaderGeco_Merge_7\CP2_MeshShaderGeco_Merge_7.vcxproj
C:\Users\gabor\Downloads\of_v0.10.1_vs2017_release\apps\myApps_2\CP2_MeshShaderGeco_Merge_7\bin\CP2_MeshShaderGeco_Merge_7_debug.lib
C:\Users\gabor\Downloads\of_v0.10.1_vs2017_release\apps\myApps_2\CP2_MeshShaderGeco_Merge_7\bin\CP2_MeshShaderGeco_Merge_7_debug.exp
^C:\Users\gabor\Downloads\of_v0.10.1_vs2017_release\apps\myApps_2\CP2_MeshShaderGeco_Merge_7\CP2_MeshShaderGeco_Merge_7.vcxproj
C:\Users\gabor\Downloads\of_v0.10.1_vs2017_release\apps\myApps_2\CP2_MeshShaderGeco_Merge_7\bin\CP2_MeshShaderGeco_Merge_7_debug.lib
C:\Users\gabor\Downloads\of_v0.10.1_vs2017_release\apps\myApps_2\CP2_MeshShaderGeco_Merge_7\bin\CP2_MeshShaderGeco_Merge_7_debug.exp
^C:\Users\gabor\Downloads\of_v0.10.1_vs2017_release\apps\myApps_2\CP2_MeshShaderGeco_Merge_7\CP2_MeshShaderGeco_Merge_7.vcxproj
C:\Users\gabor\Downloads\of_v0.10.1_vs2017_release\apps\myApps_2\CP2_MeshShaderGeco_Merge_7\bin\CP2_MeshShaderGeco_Merge_7_debug.lib
C:\Users\gabor\Downloads\of_v0.10.1_vs2017_release\apps\myApps_2\CP2_MeshShaderGeco_Merge_7\bin\CP2_MeshShaderGeco_Merge_7_debug.exp
^C:\Users\gabor\Downloads\of_v0.10.1_vs2017_release\apps\myApps_2\CP2_MeshShaderGeco_Merge_7\CP2_MeshShaderGeco_Merge_7.vcxproj
C:\Users\gabor\Downloads\of_v0.10.1_vs2017_release\apps\myApps_2\CP2_MeshShaderGeco_Merge_7\bin\CP2_MeshShaderGeco_Merge_7_debug.lib
C:\Users\gabor\Downloads\of_v0.10.1_vs2017_release\apps\myApps_2\CP2_MeshShaderGeco_Merge_7\bin\CP2_MeshShaderGeco_Merge_7_debug.exp
^C:\Users\gabor\Downloads\of_v0.10.1_vs2017_release\apps\myApps_2\CP2_MeshShaderGeco_Merge_7\CP2_MeshShaderGeco_Merge_7.vcxproj
C:\Users\gabor\Downloads\of_v0.10.1_vs2017_release\apps\myApps_2\CP2_MeshShaderGeco_Merge_7\bin\CP2_MeshShaderGeco_Merge_7_debug.lib
C:\Users\gabor\Downloads\of_v0.10.1_vs2017_release\apps\myApps_2\CP2_MeshShaderGeco_Merge_7\bin\CP2_MeshShaderGeco_Merge_7_debug.exp
^C:\Users\gabor\Downloads\of_v0.10.1_vs2017_release\apps\myApps_2\CP2_MeshShaderGeco_Merge_7\CP2_MeshShaderGeco_Merge_7.vcxproj
C:\Users\gabor\Downloads\of_v0.10.1_vs2017_release\apps\myApps_2\CP2_MeshShaderGeco_Merge_7\bin\CP2_MeshShaderGeco_Merge_7_debug.lib
C:\Users\gabor\Downloads\of_v0.10.1_vs2017_release\apps\myApps_2\CP2_MeshShaderGeco_Merge_7\bin\CP2_MeshShaderGeco_Merge_7_debug.exp
^C:\Users\gabor\Downloads\of_v0.10.1_vs2017_release\apps\myApps_2\CP2_MeshShaderGeco_Merge_7\CP2_MeshShaderGeco_Merge_7.vcxproj
C:\Users\gabor\Downloads\of_v0.10.1_vs2017_release\apps\myApps_2\CP2_MeshShaderGeco_Merge_7\bin\CP2_MeshShaderGeco_Merge_7_debug.lib
C:\Users\gabor\Downloads\of_v0.10.1_vs2017_release\apps\myApps_2\CP2_MeshShaderGeco_Merge_7\bin\CP2_MeshShaderGeco_Merge_7_debug.exp
^C:\Users\gabor\Downloads\of_v0.10.1_vs2017_release\apps\myApps_2\CP2_MeshShaderGeco_Merge_7\CP2_MeshShaderGeco_Merge_7.vcxproj
C:\Users\gabor\Downloads\of_v0.10.1_vs2017_release\apps\myApps_2\CP2_MeshShaderGeco_Merge_7\bin\CP2_MeshShaderGeco_Merge_7_debug.lib
C:\Users\gabor\Downloads\of_v0.10.1_vs2017_release\apps\myApps_2\CP2_MeshShaderGeco_Merge_7\bin\CP2_MeshShaderGeco_Merge_7_debug.exp
^C:\Users\gabor\Downloads\of_v0.10.1_vs2017_release\apps\myApps_2\CP2_MeshShaderGeco_Merge_7\CP2_MeshShaderGeco_Merge_7.vcxproj
C:\Users\gabor\Downloads\of_v0.10.1_vs2017_release\apps\myApps_2\CP2_MeshShaderGeco_Merge_7\bin\CP2_MeshShaderGeco_Merge_7_debug.lib
C:\Users\gabor\Downloads\of_v0.10.1_vs2017_release\apps\myApps_2\CP2_MeshShaderGeco_Merge_7\bin\CP2_MeshShaderGeco_Merge_7_debug.exp
^C:\Users\gabor\Downloads\of_v0.10.1_vs2017_release\apps\myApps_2\CP2_MeshShaderGeco_Merge_7\CP2_MeshShaderGeco_Merge_7.vcxproj
C:\Users\gabor\Downloads\of_v0.10.1_vs2017_release\apps\myApps_2\CP2_MeshShaderGeco_Merge_7\bin\CP2_MeshShaderGeco_Merge_7_debug.lib
C:\Users\gabor\Downloads\of_v0.10.1_vs2017_release\apps\myApps_2\CP2_MeshShaderGeco_Merge_7\bin\CP2_MeshShaderGeco_Merge_7_debug.exp
^C:\Users\gabor\Downloads\of_v0.10.1_vs2017_release\apps\myApps_2\CP2_MeshShaderGeco_Merge_7\CP2_MeshShaderGeco_Merge_7.vcxproj
C:\Users\gabor\Downloads\of_v0.10.1_vs2017_release\apps\myApps_2\CP2_MeshShaderGeco_Merge_7\bin\CP2_MeshShaderGeco_Merge_7_debug.lib
C:\Users\gabor\Downloads\of_v0.10.1_vs2017_release\apps\myApps_2\CP2_MeshShaderGeco_Merge_7\bin\CP2_MeshShaderGeco_Merge_7_debug.exp
^C:\Users\gabor\Downloads\of_v0.10.1_vs2017_release\apps\myApps_2\CP2_MeshShaderGeco_Merge_7\CP2_MeshShaderGeco_Merge_7.vcxproj
C:\Users\gabor\Downloads\of_v0.10.1_vs2017_release\apps\myApps_2\CP2_MeshShaderGeco_Merge_7\bin\CP2_MeshShaderGeco_Merge_7_debug.lib
C:\Users\gabor\Downloads\of_v0.10.1_vs2017_release\apps\myApps_2\CP2_MeshShaderGeco_Merge_7\bin\CP2_MeshShaderGeco_Merge_7_debug.exp
^C:\Users\gabor\Downloads\of_v0.10.1_vs2017_release\apps\myApps_2\CP2_MeshShaderGeco_Merge_7\CP2_MeshShaderGeco_Merge_7.vcxproj
C:\Users\gabor\Downloads\of_v0.10.1_vs2017_release\apps\myApps_2\CP2_MeshShaderGeco_Merge_7\bin\CP2_MeshShaderGeco_Merge_7_debug.lib
C:\Users\gabor\Downloads\of_v0.10.1_vs2017_release\apps\myApps_2\CP2_MeshShaderGeco_Merge_7\bin\CP2_MeshShaderGeco_Merge_7_debug.exp
^C:\Users\gabor\Downloads\of_v0.10.1_vs2017_release\apps\myApps_2\CP2_MeshShaderGeco_Merge_7\CP2_MeshShaderGeco_Merge_7.vcxproj
C:\Users\gabor\Downloads\of_v0.10.1_vs2017_release\apps\myApps_2\CP2_MeshShaderGeco_Merge_7\bin\CP2_MeshShaderGeco_Merge_7_debug.lib
C:\Users\gabor\Downloads\of_v0.10.1_vs2017_release\apps\myApps_2\CP2_MeshShaderGeco_Merge_7\bin\CP2_MeshShaderGeco_Merge_7_debug.exp
^C:\Users\gabor\Downloads\of_v0.10.1_vs2017_release\apps\myApps_2\CP2_MeshShaderGeco_Merge_7\CP2_MeshShaderGeco_Merge_7.vcxproj
C:\Users\gabor\Downloads\of_v0.10.1_vs2017_release\apps\myApps_2\CP2_MeshShaderGeco_Merge_7\bin\CP2_MeshShaderGeco_Merge_7_debug.lib
C:\Users\gabor\Downloads\of_v0.10.1_vs2017_release\apps\myApps_2\CP2_MeshShaderGeco_Merge_7\bin\CP2_MeshShaderGeco_Merge_7_debug.exp
^C:\Users\gabor\Downloads\of_v0.10.1_vs2017_release\apps\myApps_2\CP2_MeshShaderGeco_Merge_7\CP2_MeshShaderGeco_Merge_7.vcxproj
C:\Users\gabor\Downloads\of_v0.10.1_vs2017_release\apps\myApps_2\CP2_MeshShaderGeco_Merge_7\bin\CP2_MeshShaderGeco_Merge_7_debug.lib
C:\Users\gabor\Downloads\of_v0.10.1_vs2017_release\apps\myApps_2\CP2_MeshShaderGeco_Merge_7\bin\CP2_MeshShaderGeco_Merge_7_debug.exp
^C:\Users\gabor\Downloads\of_v0.10.1_vs2017_release\apps\myApps_2\CP2_MeshShaderGeco_Merge_7\CP2_MeshShaderGeco_Merge_7.vcxproj
C:\Users\gabor\Downloads\of_v0.10.1_vs2017_release\apps\myApps_2\CP2_MeshShaderGeco_Merge_7\bin\CP2_MeshShaderGeco_Merge_7_debug.lib
C:\Users\gabor\Downloads\of_v0.10.1_vs2017_release\apps\myApps_2\CP2_MeshShaderGeco_Merge_7\bin\CP2_MeshShaderGeco_Merge_7_debug.exp
^C:\Users\gabor\Downloads\of_v0.10.1_vs2017_release\apps\myApps_2\CP2_MeshShaderGeco_Merge_7\CP2_MeshShaderGeco_Merge_7.vcxproj
C:\Users\gabor\Downloads\of_v0.10.1_vs2017_release\apps\myApps_2\CP2_MeshShaderGeco_Merge_7\bin\CP2_MeshShaderGeco_Merge_7_debug.lib
C:\Users\gabor\Downloads\of_v0.10.1_vs2017_release\apps\myApps_2\CP2_MeshShaderGeco_Merge_7\bin\CP2_MeshShaderGeco_Merge_7_debug.exp
^C:\Users\gabor\Downloads\of_v0.10.1_vs2017_release\apps\myApps_2\CP2_MeshShaderGeco_Merge_7\CP2_MeshShaderGeco_Merge_7.vcxproj
C:\Users\gabor\Downloads\of_v0.10.1_vs2017_release\apps\myApps_2\CP2_MeshShaderGeco_Merge_7\bin\CP2_MeshShaderGeco_Merge_7_debug.lib
C:\Users\gabor\Downloads\of_v0.10.1_vs2017_release\apps\myApps_2\CP2_MeshShaderGeco_Merge_7\bin\CP2_MeshShaderGeco_Merge_7_debug.exp
^C:\Users\gabor\Downloads\of_v0.10.1_vs2017_release\apps\myApps_2\CP2_MeshShaderGeco_Merge_7\CP2_MeshShaderGeco_Merge_7.vcxproj
C:\Users\gabor\Downloads\of_v0.10.1_vs2017_release\apps\myApps_2\CP2_MeshShaderGeco_Merge_7\bin\CP2_MeshShaderGeco_Merge_7_debug.lib
C:\Users\gabor\Downloads\of_v0.10.1_vs2017_release\apps\myApps_2\CP2_MeshShaderGeco_Merge_7\bin\CP2_MeshShaderGeco_Merge_7_debug.exp
^C:\Users\gabor\Downloads\of_v0.10.1_vs2017_release\apps\myApps_2\CP2_MeshShaderGeco_Merge_7\CP2_MeshShaderGeco_Merge_7.vcxproj
C:\Users\gabor\Downloads\of_v0.10.1_vs2017_release\apps\myApps_2\CP2_MeshShaderGeco_Merge_7\bin\CP2_MeshShaderGeco_Merge_7_debug.lib
C:\Users\gabor\Downloads\of_v0.10.1_vs2017_release\apps\myApps_2\CP2_MeshShaderGeco_Merge_7\bin\CP2_MeshShaderGeco_Merge_7_debug.exp
^C:\Users\gabor\Downloads\of_v0.10.1_vs2017_release\apps\myApps_2\CP2_MeshShaderGeco_Merge_7\CP2_MeshShaderGeco_Merge_7.vcxproj
C:\Users\gabor\Downloads\of_v0.10.1_vs2017_release\apps\myApps_2\CP2_MeshShaderGeco_Merge_7\bin\CP2_MeshShaderGeco_Merge_7_debug.lib
C:\Users\gabor\Downloads\of_v0.10.1_vs2017_release\apps\myApps_2\CP2_MeshShaderGeco_Merge_7\bin\CP2_MeshShaderGeco_Merge_7_debug.exp
^C:\Users\gabor\Downloads\of_v0.10.1_vs2017_release\apps\myApps_2\CP2_MeshShaderGeco_Merge_7\CP2_MeshShaderGeco_Merge_7.vcxproj
C:\Users\gabor\Downloads\of_v0.10.1_vs2017_release\apps\myApps_2\CP2_MeshShaderGeco_Merge_7\bin\CP2_MeshShaderGeco_Merge_7_debug.lib
C:\Users\gabor\Downloads\of_v0.10.1_vs2017_release\apps\myApps_2\CP2_MeshShaderGeco_Merge_7\bin\CP2_MeshShaderGeco_Merge_7_debug.exp
^C:\Users\gabor\Downloads\of_v0.10.1_vs2017_release\apps\myApps_2\CP2_MeshShaderGeco_Merge_7\CP2_MeshShaderGeco_Merge_7.vcxproj
C:\Users\gabor\Downloads\of_v0.10.1_vs2017_release\apps\myApps_2\CP2_MeshShaderGeco_Merge_7\bin\CP2_MeshShaderGeco_Merge_7_debug.lib
C:\Users\gabor\Downloads\of_v0.10.1_vs2017_release\apps\myApps_2\CP2_MeshShaderGeco_Merge_7\bin\CP2_MeshShaderGeco_Merge_7_debug.exp
^C:\Users\gabor\Downloads\of_v0.10.1_vs2017_release\apps\myApps_2\CP2_MeshShaderGeco_Merge_7\CP2_MeshShaderGeco_Merge_7.vcxproj
C:\Users\gabor\Downloads\of_v0.10.1_vs2017_release\apps\myApps_2\CP2_MeshShaderGeco_Merge_7\bin\CP2_MeshShaderGeco_Merge_7_debug.lib
C:\Users\gabor\Downloads\of_v0.10.1_vs2017_release\apps\myApps_2\CP2_MeshShaderGeco_Merge_7\bin\CP2_MeshShaderGeco_Merge_7_debug.exp
^C:\Users\gabor\Downloads\of_v0.10.1_vs2017_release\apps\myApps_2\CP2_MeshShaderGeco_Merge_9\CP2_MeshShaderGeco_Merge_7.vcxproj
C:\Users\gabor\Downloads\of_v0.10.1_vs2017_release\apps\myApps_2\CP2_MeshShaderGeco_Merge_9\bin\CP2_MeshShaderGeco_Merge_7_debug.lib
C:\Users\gabor\Downloads\of_v0.10.1_vs2017_release\apps\myApps_2\CP2_MeshShaderGeco_Merge_9\bin\CP2_MeshShaderGeco_Merge_7_debug.exp
^C:\Users\gabor\Downloads\of_v0.10.1_vs2017_release\apps\myApps_2\CP2_MeshShaderGeco_Merge_9\CP2_MeshShaderGeco_Merge_7.vcxproj
C:\Users\gabor\Downloads\of_v0.10.1_vs2017_release\apps\myApps_2\CP2_MeshShaderGeco_Merge_9\bin\CP2_MeshShaderGeco_Merge_7_debug.lib
C:\Users\gabor\Downloads\of_v0.10.1_vs2017_release\apps\myApps_2\CP2_MeshShaderGeco_Merge_9\bin\CP2_MeshShaderGeco_Merge_7_debug.exp
^C:\Users\gabor\Downloads\of_v0.10.1_vs2017_release\apps\myApps_2\CP2_MeshShaderGeco_Merge_9\CP2_MeshShaderGeco_Merge_7.vcxproj
C:\Users\gabor\Downloads\of_v0.10.1_vs2017_release\apps\myApps_2\CP2_MeshShaderGeco_Merge_9\bin\CP2_MeshShaderGeco_Merge_7_debug.lib
C:\Users\gabor\Downloads\of_v0.10.1_vs2017_release\apps\myApps_2\CP2_MeshShaderGeco_Merge_9\bin\CP2_MeshShaderGeco_Merge_7_debug.exp
^C:\Users\gabor\Downloads\of_v0.10.1_vs2017_release\apps\myApps_2\CP2_MeshShaderGeco_Merge_9\CP2_MeshShaderGeco_Merge_7.vcxproj
C:\Users\gabor\Downloads\of_v0.10.1_vs2017_release\apps\myApps_2\CP2_MeshShaderGeco_Merge_9\bin\CP2_MeshShaderGeco_Merge_7_debug.lib
C:\Users\gabor\Downloads\of_v0.10.1_vs2017_release\apps\myApps_2\CP2_MeshShaderGeco_Merge_9\bin\CP2_MeshShaderGeco_Merge_7_debug.exp
^C:\Users\gabor\Downloads\of_v0.10.1_vs2017_release\apps\myApps_2\CP2_MeshShaderGeco_Merge_9\CP2_MeshShaderGeco_Merge_7.vcxproj
C:\Users\gabor\Downloads\of_v0.10.1_vs2017_release\apps\myApps_2\CP2_MeshShaderGeco_Merge_9\bin\CP2_MeshShaderGeco_Merge_7_debug.lib
C:\Users\gabor\Downloads\of_v0.10.1_vs2017_release\apps\myApps_2\CP2_MeshShaderGeco_Merge_9\bin\CP2_MeshShaderGeco_Merge_7_debug.exp
^C:\Users\gabor\Downloads\of_v0.10.1_vs2017_release\apps\myApps_2\CP2_MeshShaderGeco_Merge_9\CP2_MeshShaderGeco_Merge_7.vcxproj
C:\Users\gabor\Downloads\of_v0.10.1_vs2017_release\apps\myApps_2\CP2_MeshShaderGeco_Merge_9\bin\CP2_MeshShaderGeco_Merge_7_debug.lib
C:\Users\gabor\Downloads\of_v0.10.1_vs2017_release\apps\myApps_2\CP2_MeshShaderGeco_Merge_9\bin\CP2_MeshShaderGeco_Merge_7_debug.exp
^C:\Users\gabor\Downloads\of_v0.10.1_vs2017_release\apps\myApps_2\CP2_MeshShaderGeco_Merge_9\CP2_MeshShaderGeco_Merge_7.vcxproj
C:\Users\gabor\Downloads\of_v0.10.1_vs2017_release\apps\myApps_2\CP2_MeshShaderGeco_Merge_9\bin\CP2_MeshShaderGeco_Merge_7_debug.lib
C:\Users\gabor\Downloads\of_v0.10.1_vs2017_release\apps\myApps_2\CP2_MeshShaderGeco_Merge_9\bin\CP2_MeshShaderGeco_Merge_7_debug.exp
^C:\Users\gabor\Downloads\of_v0.10.1_vs2017_release\apps\myApps_2\CP2_MeshShaderGeco_Merge_9\CP2_MeshShaderGeco_Merge_7.vcxproj
C:\Users\gabor\Downloads\of_v0.10.1_vs2017_release\apps\myApps_2\CP2_MeshShaderGeco_Merge_9\bin\CP2_MeshShaderGeco_Merge_7_debug.lib
C:\Users\gabor\Downloads\of_v0.10.1_vs2017_release\apps\myApps_2\CP2_MeshShaderGeco_Merge_9\bin\CP2_MeshShaderGeco_Merge_7_debug.exp
^C:\Users\gabor\Downloads\of_v0.10.1_vs2017_release\apps\myApps_2\CP2_MeshShaderGeco_Merge_9\CP2_MeshShaderGeco_Merge_7.vcxproj
C:\Users\gabor\Downloads\of_v0.10.1_vs2017_release\apps\myApps_2\CP2_MeshShaderGeco_Merge_9\bin\CP2_MeshShaderGeco_Merge_7_debug.lib
C:\Users\gabor\Downloads\of_v0.10.1_vs2017_release\apps\myApps_2\CP2_MeshShaderGeco_Merge_9\bin\CP2_MeshShaderGeco_Merge_7_debug.exp
^C:\Users\gabor\Downloads\of_v0.10.1_vs2017_release\apps\myApps_2\CP2_MeshShaderGeco_Merge_9\CP2_MeshShaderGeco_Merge_7.vcxproj
C:\Users\gabor\Downloads\of_v0.10.1_vs2017_release\apps\myApps_2\CP2_MeshShaderGeco_Merge_9\bin\CP2_MeshShaderGeco_Merge_7_debug.lib
C:\Users\gabor\Downloads\of_v0.10.1_vs2017_release\apps\myApps_2\CP2_MeshShaderGeco_Merge_9\bin\CP2_MeshShaderGeco_Merge_7_debug.exp
^C:\Users\gabor\Downloads\of_v0.10.1_vs2017_release\apps\myApps_2\CP2_MeshShaderGeco_Merge_9\CP2_MeshShaderGeco_Merge_7.vcxproj
C:\Users\gabor\Downloads\of_v0.10.1_vs2017_release\apps\myApps_2\CP2_MeshShaderGeco_Merge_9\bin\CP2_MeshShaderGeco_Merge_7_debug.lib
C:\Users\gabor\Downloads\of_v0.10.1_vs2017_release\apps\myApps_2\CP2_MeshShaderGeco_Merge_9\bin\CP2_MeshShaderGeco_Merge_7_debug.exp
^C:\Users\gabor\Downloads\of_v0.10.1_vs2017_release\apps\myApps_2\CP2_MeshShaderGeco_Merge_9\CP2_MeshShaderGeco_Merge_7.vcxproj
C:\Users\gabor\Downloads\of_v0.10.1_vs2017_release\apps\myApps_2\CP2_MeshShaderGeco_Merge_9\bin\CP2_MeshShaderGeco_Merge_7_debug.lib
C:\Users\gabor\Downloads\of_v0.10.1_vs2017_release\apps\myApps_2\CP2_MeshShaderGeco_Merge_9\bin\CP2_MeshShaderGeco_Merge_7_debug.exp
^C:\Users\gabor\Downloads\of_v0.10.1_vs2017_release\apps\myApps_2\CP2_MeshShaderGeco_Merge_9\CP2_MeshShaderGeco_Merge_7.vcxproj
C:\Users\gabor\Downloads\of_v0.10.1_vs2017_release\apps\myApps_2\CP2_MeshShaderGeco_Merge_9\bin\CP2_MeshShaderGeco_Merge_7_debug.lib
C:\Users\gabor\Downloads\of_v0.10.1_vs2017_release\apps\myApps_2\CP2_MeshShaderGeco_Merge_9\bin\CP2_MeshShaderGeco_Merge_7_debug.exp
^C:\Users\gabor\Downloads\of_v0.10.1_vs2017_release\apps\myApps_2\CP2_MeshShaderGeco_Merge_9\CP2_MeshShaderGeco_Merge_7.vcxproj
C:\Users\gabor\Downloads\of_v0.10.1_vs2017_release\apps\myApps_2\CP2_MeshShaderGeco_Merge_9\bin\CP2_MeshShaderGeco_Merge_7_debug.lib
C:\Users\gabor\Downloads\of_v0.10.1_vs2017_release\apps\myApps_2\CP2_MeshShaderGeco_Merge_9\bin\CP2_MeshShaderGeco_Merge_7_debug.exp
^C:\Users\gabor\Downloads\of_v0.10.1_vs2017_release\apps\myApps_2\CP2_MeshShaderGeco_Merge_9\CP2_MeshShaderGeco_Merge_7.vcxproj
C:\Users\gabor\Downloads\of_v0.10.1_vs2017_release\apps\myApps_2\CP2_MeshShaderGeco_Merge_9\bin\CP2_MeshShaderGeco_Merge_7_debug.lib
C:\Users\gabor\Downloads\of_v0.10.1_vs2017_release\apps\myApps_2\CP2_MeshShaderGeco_Merge_9\bin\CP2_MeshShaderGeco_Merge_7_debug.exp
^C:\Users\gabor\Downloads\of_v0.10.1_vs2017_release\apps\myApps_2\CP2_MeshShaderGeco_Merge_9\CP2_MeshShaderGeco_Merge_7.vcxproj
C:\Users\gabor\Downloads\of_v0.10.1_vs2017_release\apps\myApps_2\CP2_MeshShaderGeco_Merge_9\bin\CP2_MeshShaderGeco_Merge_7_debug.lib
C:\Users\gabor\Downloads\of_v0.10.1_vs2017_release\apps\myApps_2\CP2_MeshShaderGeco_Merge_9\bin\CP2_MeshShaderGeco_Merge_7_debug.exp
^C:\Users\gabor\Downloads\of_v0.10.1_vs2017_release\apps\myApps_2\CP2_MeshShaderGeco_Merge_9\CP2_MeshShaderGeco_Merge_7.vcxproj
C:\Users\gabor\Downloads\of_v0.10.1_vs2017_release\apps\myApps_2\CP2_MeshShaderGeco_Merge_9\bin\CP2_MeshShaderGeco_Merge_7_debug.lib
C:\Users\gabor\Downloads\of_v0.10.1_vs2017_release\apps\myApps_2\CP2_MeshShaderGeco_Merge_9\bin\CP2_MeshShaderGeco_Merge_7_debug.exp
^C:\Users\gabor\Downloads\of_v0.10.1_vs2017_release\apps\myApps_2\CP2_MeshShaderGeco_Merge_9\CP2_MeshShaderGeco_Merge_7.vcxproj
C:\Users\gabor\Downloads\of_v0.10.1_vs2017_release\apps\myApps_2\CP2_MeshShaderGeco_Merge_9\bin\CP2_MeshShaderGeco_Merge_7_debug.lib
C:\Users\gabor\Downloads\of_v0.10.1_vs2017_release\apps\myApps_2\CP2_MeshShaderGeco_Merge_9\bin\CP2_MeshShaderGeco_Merge_7_debug.exp
^C:\Users\gabor\Downloads\of_v0.10.1_vs2017_release\apps\myApps_2\CP2_MeshShaderGeco_Merge_9\CP2_MeshShaderGeco_Merge_7.vcxproj
C:\Users\gabor\Downloads\of_v0.10.1_vs2017_release\apps\myApps_2\CP2_MeshShaderGeco_Merge_9\bin\CP2_MeshShaderGeco_Merge_7_debug.lib
C:\Users\gabor\Downloads\of_v0.10.1_vs2017_release\apps\myApps_2\CP2_MeshShaderGeco_Merge_9\bin\CP2_MeshShaderGeco_Merge_7_debug.exp
^C:\Users\gabor\Downloads\of_v0.10.1_vs2017_release\apps\myApps_2\CP2_MeshShaderGeco_Merge_9\CP2_MeshShaderGeco_Merge_7.vcxproj
C:\Users\gabor\Downloads\of_v0.10.1_vs2017_release\apps\myApps_2\CP2_MeshShaderGeco_Merge_9\bin\CP2_MeshShaderGeco_Merge_7_debug.lib
C:\Users\gabor\Downloads\of_v0.10.1_vs2017_release\apps\myApps_2\CP2_MeshShaderGeco_Merge_9\bin\CP2_MeshShaderGeco_Merge_7_debug.exp
^C:\Users\gabor\Downloads\of_v0.10.1_vs2017_release\apps\myApps_2\CP2_MeshShaderGeco_Merge_9\CP2_MeshShaderGeco_Merge_7.vcxproj
C:\Users\gabor\Downloads\of_v0.10.1_vs2017_release\apps\myApps_2\CP2_MeshShaderGeco_Merge_9\bin\CP2_MeshShaderGeco_Merge_7_debug.lib
C:\Users\gabor\Downloads\of_v0.10.1_vs2017_release\apps\myApps_2\CP2_MeshShaderGeco_Merge_9\bin\CP2_MeshShaderGeco_Merge_7_debug.exp
^C:\Users\gabor\Downloads\of_v0.10.1_vs2017_release\apps\myApps_2\CP2_MeshShaderGeco_Merge_9\CP2_MeshShaderGeco_Merge_7.vcxproj
C:\Users\gabor\Downloads\of_v0.10.1_vs2017_release\apps\myApps_2\CP2_MeshShaderGeco_Merge_9\bin\CP2_MeshShaderGeco_Merge_7_debug.lib
C:\Users\gabor\Downloads\of_v0.10.1_vs2017_release\apps\myApps_2\CP2_MeshShaderGeco_Merge_9\bin\CP2_MeshShaderGeco_Merge_7_debug.exp
^C:\Users\gabor\Downloads\of_v0.10.1_vs2017_release\apps\myApps_2\CP2_MeshShaderGeco_Merge_9\CP2_MeshShaderGeco_Merge_7.vcxproj
C:\Users\gabor\Downloads\of_v0.10.1_vs2017_release\apps\myApps_2\CP2_MeshShaderGeco_Merge_9\bin\CP2_MeshShaderGeco_Merge_7_debug.lib
C:\Users\gabor\Downloads\of_v0.10.1_vs2017_release\apps\myApps_2\CP2_MeshShaderGeco_Merge_9\bin\CP2_MeshShaderGeco_Merge_7_debug.exp
^C:\Users\gabor\Downloads\of_v0.10.1_vs2017_release\apps\myApps_2\CP2_MeshShaderGeco_Merge_9\CP2_MeshShaderGeco_Merge_7.vcxproj
C:\Users\gabor\Downloads\of_v0.10.1_vs2017_release\apps\myApps_2\CP2_MeshShaderGeco_Merge_9\bin\CP2_MeshShaderGeco_Merge_7_debug.lib
C:\Users\gabor\Downloads\of_v0.10.1_vs2017_release\apps\myApps_2\CP2_MeshShaderGeco_Merge_9\bin\CP2_MeshShaderGeco_Merge_7_debug.exp
^C:\Users\gabor\Downloads\of_v0.10.1_vs2017_release\apps\myApps_2\CP2_MeshShaderGeco_Merge_9\CP2_MeshShaderGeco_Merge_7.vcxproj
C:\Users\gabor\Downloads\of_v0.10.1_vs2017_release\apps\myApps_2\CP2_MeshShaderGeco_Merge_9\bin\CP2_MeshShaderGeco_Merge_7_debug.lib
C:\Users\gabor\Downloads\of_v0.10.1_vs2017_release\apps\myApps_2\CP2_MeshShaderGeco_Merge_9\bin\CP2_MeshShaderGeco_Merge_7_debug.exp
^C:\Users\gabor\Downloads\of_v0.10.1_vs2017_release\apps\myApps_2\CP2_MeshShaderGeco_Merge_9\CP2_MeshShaderGeco_Merge_7.vcxproj
C:\Users\gabor\Downloads\of_v0.10.1_vs2017_release\apps\myApps_2\CP2_MeshShaderGeco_Merge_9\bin\CP2_MeshShaderGeco_Merge_7_debug.lib
C:\Users\gabor\Downloads\of_v0.10.1_vs2017_release\apps\myApps_2\CP2_MeshShaderGeco_Merge_9\bin\CP2_MeshShaderGeco_Merge_7_debug.exp
^C:\Users\gabor\Downloads\of_v0.10.1_vs2017_release\apps\myApps_2\CP2_MeshShaderGeco_Merge_9\CP2_MeshShaderGeco_Merge_7.vcxproj
C:\Users\gabor\Downloads\of_v0.10.1_vs2017_release\apps\myApps_2\CP2_MeshShaderGeco_Merge_9\bin\CP2_MeshShaderGeco_Merge_7_debug.lib
C:\Users\gabor\Downloads\of_v0.10.1_vs2017_release\apps\myApps_2\CP2_MeshShaderGeco_Merge_9\bin\CP2_MeshShaderGeco_Merge_7_debug.exp
^C:\Users\gabor\Downloads\of_v0.10.1_vs2017_release\apps\myApps_2\CP2_MeshShaderGeco_Merge_9\CP2_MeshShaderGeco_Merge_7.vcxproj
C:\Users\gabor\Downloads\of_v0.10.1_vs2017_release\apps\myApps_2\CP2_MeshShaderGeco_Merge_9\bin\CP2_MeshShaderGeco_Merge_7_debug.lib
C:\Users\gabor\Downloads\of_v0.10.1_vs2017_release\apps\myApps_2\CP2_MeshShaderGeco_Merge_9\bin\CP2_MeshShaderGeco_Merge_7_debug.exp
^C:\Users\gabor\Downloads\of_v0.10.1_vs2017_release\apps\myApps_2\CP2_MeshShaderGeco_Merge_9\CP2_MeshShaderGeco_Merge_7.vcxproj
C:\Users\gabor\Downloads\of_v0.10.1_vs2017_release\apps\myApps_2\CP2_MeshShaderGeco_Merge_9\bin\CP2_MeshShaderGeco_Merge_7_debug.lib
C:\Users\gabor\Downloads\of_v0.10.1_vs2017_release\apps\myApps_2\CP2_MeshShaderGeco_Merge_9\bin\CP2_MeshShaderGeco_Merge_7_debug.exp
^C:\Users\gabor\Downloads\of_v0.10.1_vs2017_release\apps\myApps_2\CP2_MeshShaderGeco_Merge_9\CP2_MeshShaderGeco_Merge_7.vcxproj
C:\Users\gabor\Downloads\of_v0.10.1_vs2017_release\apps\myApps_2\CP2_MeshShaderGeco_Merge_9\bin\CP2_MeshShaderGeco_Merge_7_debug.lib
C:\Users\gabor\Downloads\of_v0.10.1_vs2017_release\apps\myApps_2\CP2_MeshShaderGeco_Merge_9\bin\CP2_MeshShaderGeco_Merge_7_debug.exp
^C:\Users\gabor\Downloads\of_v0.10.1_vs2017_release\apps\myApps_2\CP2_MeshShaderGeco_Merge_9\CP2_MeshShaderGeco_Merge_7.vcxproj
C:\Users\gabor\Downloads\of_v0.10.1_vs2017_release\apps\myApps_2\CP2_MeshShaderGeco_Merge_9\bin\CP2_MeshShaderGeco_Merge_7_debug.lib
C:\Users\gabor\Downloads\of_v0.10.1_vs2017_release\apps\myApps_2\CP2_MeshShaderGeco_Merge_9\bin\CP2_MeshShaderGeco_Merge_7_debug.exp
^C:\Users\gabor\Downloads\of_v0.10.1_vs2017_release\apps\myApps_2\CP2_MeshShaderGeco_Merge_9\CP2_MeshShaderGeco_Merge_7.vcxproj
C:\Users\gabor\Downloads\of_v0.10.1_vs2017_release\apps\myApps_2\CP2_MeshShaderGeco_Merge_9\bin\CP2_MeshShaderGeco_Merge_7_debug.lib
C:\Users\gabor\Downloads\of_v0.10.1_vs2017_release\apps\myApps_2\CP2_MeshShaderGeco_Merge_9\bin\CP2_MeshShaderGeco_Merge_7_debug.exp
^C:\Users\gabor\Downloads\of_v0.10.1_vs2017_release\apps\myApps_2\CP2_MeshShaderGeco_Merge_9\CP2_MeshShaderGeco_Merge_7.vcxproj
C:\Users\gabor\Downloads\of_v0.10.1_vs2017_release\apps\myApps_2\CP2_MeshShaderGeco_Merge_9\bin\CP2_MeshShaderGeco_Merge_7_debug.lib
C:\Users\gabor\Downloads\of_v0.10.1_vs2017_release\apps\myApps_2\CP2_MeshShaderGeco_Merge_9\bin\CP2_MeshShaderGeco_Merge_7_debug.exp
^C:\Users\gabor\Downloads\of_v0.10.1_vs2017_release\apps\myApps_2\CP2_MeshShaderGeco_Merge_9\CP2_MeshShaderGeco_Merge_7.vcxproj
C:\Users\gabor\Downloads\of_v0.10.1_vs2017_release\apps\myApps_2\CP2_MeshShaderGeco_Merge_9\bin\CP2_MeshShaderGeco_Merge_7_debug.lib
C:\Users\gabor\Downloads\of_v0.10.1_vs2017_release\apps\myApps_2\CP2_MeshShaderGeco_Merge_9\bin\CP2_MeshShaderGeco_Merge_7_debug.exp
^C:\Users\gabor\Downloads\of_v0.10.1_vs2017_release\apps\myApps_2\CP2_MeshShaderGeco_Merge_9\CP2_MeshShaderGeco_Merge_7.vcxproj
C:\Users\gabor\Downloads\of_v0.10.1_vs2017_release\apps\myApps_2\CP2_MeshShaderGeco_Merge_9\bin\CP2_MeshShaderGeco_Merge_7_debug.lib
C:\Users\gabor\Downloads\of_v0.10.1_vs2017_release\apps\myApps_2\CP2_MeshShaderGeco_Merge_9\bin\CP2_MeshShaderGeco_Merge_7_debug.exp
^C:\Users\gabor\Downloads\of_v0.10.1_vs2017_release\apps\myApps_2\CP2_MeshShaderGeco_Merge_9\CP2_MeshShaderGeco_Merge_7.vcxproj
C:\Users\gabor\Downloads\of_v0.10.1_vs2017_release\apps\myApps_2\CP2_MeshShaderGeco_Merge_9\bin\CP2_MeshShaderGeco_Merge_7_debug.lib
C:\Users\gabor\Downloads\of_v0.10.1_vs2017_release\apps\myApps_2\CP2_MeshShaderGeco_Merge_9\bin\CP2_MeshShaderGeco_Merge_7_debug.exp
^C:\Users\gabor\Downloads\of_v0.10.1_vs2017_release\apps\myApps_2\CP2_MeshShaderGeco_Merge_9\CP2_MeshShaderGeco_Merge_7.vcxproj
C:\Users\gabor\Downloads\of_v0.10.1_vs2017_release\apps\myApps_2\CP2_MeshShaderGeco_Merge_9\bin\CP2_MeshShaderGeco_Merge_7_debug.lib
C:\Users\gabor\Downloads\of_v0.10.1_vs2017_release\apps\myApps_2\CP2_MeshShaderGeco_Merge_9\bin\CP2_MeshShaderGeco_Merge_7_debug.exp
^C:\Users\gabor\Downloads\of_v0.10.1_vs2017_release\apps\myApps_2\CP2_MeshShaderGeco_Merge_9\CP2_MeshShaderGeco_Merge_7.vcxproj
C:\Users\gabor\Downloads\of_v0.10.1_vs2017_release\apps\myApps_2\CP2_MeshShaderGeco_Merge_9\bin\CP2_MeshShaderGeco_Merge_7_debug.lib
C:\Users\gabor\Downloads\of_v0.10.1_vs2017_release\apps\myApps_2\CP2_MeshShaderGeco_Merge_9\bin\CP2_MeshShaderGeco_Merge_7_debug.exp
^C:\Users\gabor\Downloads\of_v0.10.1_vs2017_release\apps\myApps_2\CP2_MeshShaderGeco_Merge_9\CP2_MeshShaderGeco_Merge_7.vcxproj
C:\Users\gabor\Downloads\of_v0.10.1_vs2017_release\apps\myApps_2\CP2_MeshShaderGeco_Merge_9\bin\CP2_MeshShaderGeco_Merge_7_debug.lib
C:\Users\gabor\Downloads\of_v0.10.1_vs2017_release\apps\myApps_2\CP2_MeshShaderGeco_Merge_9\bin\CP2_MeshShaderGeco_Merge_7_debug.exp
^C:\Users\gabor\Downloads\of_v0.10.1_vs2017_release\apps\myApps_2\CP2_MeshShaderGeco_Merge_9\CP2_MeshShaderGeco_Merge_7.vcxproj
C:\Users\gabor\Downloads\of_v0.10.1_vs2017_release\apps\myApps_2\CP2_MeshShaderGeco_Merge_9\bin\CP2_MeshShaderGeco_Merge_7_debug.lib
C:\Users\gabor\Downloads\of_v0.10.1_vs2017_release\apps\myApps_2\CP2_MeshShaderGeco_Merge_9\bin\CP2_MeshShaderGeco_Merge_7_debug.exp
^C:\Users\gabor\Downloads\of_v0.10.1_vs2017_release\apps\myApps_2\CP2_MeshShaderGeco_Merge_9\CP2_MeshShaderGeco_Merge_7.vcxproj
C:\Users\gabor\Downloads\of_v0.10.1_vs2017_release\apps\myApps_2\CP2_MeshShaderGeco_Merge_9\bin\CP2_MeshShaderGeco_Merge_7_debug.lib
C:\Users\gabor\Downloads\of_v0.10.1_vs2017_release\apps\myApps_2\CP2_MeshShaderGeco_Merge_9\bin\CP2_MeshShaderGeco_Merge_7_debug.exp
^C:\Users\gabor\Downloads\of_v0.10.1_vs2017_release\apps\myApps_2\CP2_MeshShaderGeco_Merge_9\CP2_MeshShaderGeco_Merge_7.vcxproj
C:\Users\gabor\Downloads\of_v0.10.1_vs2017_release\apps\myApps_2\CP2_MeshShaderGeco_Merge_9\bin\CP2_MeshShaderGeco_Merge_7_debug.lib
C:\Users\gabor\Downloads\of_v0.10.1_vs2017_release\apps\myApps_2\CP2_MeshShaderGeco_Merge_9\bin\CP2_MeshShaderGeco_Merge_7_debug.exp
^C:\Users\gabor\Downloads\of_v0.10.1_vs2017_release\apps\myApps_2\CP2_MeshShaderGeco_Merge_9\CP2_MeshShaderGeco_Merge_7.vcxproj
C:\Users\gabor\Downloads\of_v0.10.1_vs2017_release\apps\myApps_2\CP2_MeshShaderGeco_Merge_9\bin\CP2_MeshShaderGeco_Merge_7_debug.lib
C:\Users\gabor\Downloads\of_v0.10.1_vs2017_release\apps\myApps_2\CP2_MeshShaderGeco_Merge_9\bin\CP2_MeshShaderGeco_Merge_7_debug.exp
^C:\Users\gabor\Downloads\of_v0.10.1_vs2017_release\apps\myApps_2\CP2_MeshShaderGeco_Merge_9\CP2_MeshShaderGeco_Merge_7.vcxproj
C:\Users\gabor\Downloads\of_v0.10.1_vs2017_release\apps\myApps_2\CP2_MeshShaderGeco_Merge_9\bin\CP2_MeshShaderGeco_Merge_7_debug.lib
C:\Users\gabor\Downloads\of_v0.10.1_vs2017_release\apps\myApps_2\CP2_MeshShaderGeco_Merge_9\bin\CP2_MeshShaderGeco_Merge_7_debug.exp
^C:\Users\gabor\Downloads\of_v0.10.1_vs2017_release\apps\myApps_2\CP2_MeshShaderGeco_Merge_9\CP2_MeshShaderGeco_Merge_7.vcxproj
C:\Users\gabor\Downloads\of_v0.10.1_vs2017_release\apps\myApps_2\CP2_MeshShaderGeco_Merge_9\bin\CP2_MeshShaderGeco_Merge_7_debug.lib
C:\Users\gabor\Downloads\of_v0.10.1_vs2017_release\apps\myApps_2\CP2_MeshShaderGeco_Merge_9\bin\CP2_MeshShaderGeco_Merge_7_debug.exp
^C:\Users\gabor\Downloads\of_v0.10.1_vs2017_release\apps\myApps_2\CP2_MeshShaderGeco_Merge_9\CP2_MeshShaderGeco_Merge_7.vcxproj
C:\Users\gabor\Downloads\of_v0.10.1_vs2017_release\apps\myApps_2\CP2_MeshShaderGeco_Merge_9\bin\CP2_MeshShaderGeco_Merge_7_debug.lib
C:\Users\gabor\Downloads\of_v0.10.1_vs2017_release\apps\myApps_2\CP2_MeshShaderGeco_Merge_9\bin\CP2_MeshShaderGeco_Merge_7_debug.exp
^C:\Users\gabor\Downloads\of_v0.10.1_vs2017_release\apps\myApps_2\CP2_MeshShaderGeco_Merge_9\CP2_MeshShaderGeco_Merge_7.vcxproj
C:\Users\gabor\Downloads\of_v0.10.1_vs2017_release\apps\myApps_2\CP2_MeshShaderGeco_Merge_9\bin\CP2_MeshShaderGeco_Merge_7_debug.lib
C:\Users\gabor\Downloads\of_v0.10.1_vs2017_release\apps\myApps_2\CP2_MeshShaderGeco_Merge_9\bin\CP2_MeshShaderGeco_Merge_7_debug.exp
^C:\Users\gabor\Downloads\of_v0.10.1_vs2017_release\apps\myApps_2\CP2_MeshShaderGeco_Merge_9\CP2_MeshShaderGeco_Merge_7.vcxproj
C:\Users\gabor\Downloads\of_v0.10.1_vs2017_release\apps\myApps_2\CP2_MeshShaderGeco_Merge_9\bin\CP2_MeshShaderGeco_Merge_7_debug.lib
C:\Users\gabor\Downloads\of_v0.10.1_vs2017_release\apps\myApps_2\CP2_MeshShaderGeco_Merge_9\bin\CP2_MeshShaderGeco_Merge_7_debug.exp
^C:\Users\gabor\Downloads\of_v0.10.1_vs2017_release\apps\myApps_2\CP2_MeshShaderGeco_Merge_9\CP2_MeshShaderGeco_Merge_7.vcxproj
C:\Users\gabor\Downloads\of_v0.10.1_vs2017_release\apps\myApps_2\CP2_MeshShaderGeco_Merge_9\bin\CP2_MeshShaderGeco_Merge_7_debug.lib
C:\Users\gabor\Downloads\of_v0.10.1_vs2017_release\apps\myApps_2\CP2_MeshShaderGeco_Merge_9\bin\CP2_MeshShaderGeco_Merge_7_debug.exp
^C:\Users\gabor\Downloads\of_v0.10.1_vs2017_release\apps\myApps_2\CP2_MeshShaderGeco_Merge_9\CP2_MeshShaderGeco_Merge_7.vcxproj
C:\Users\gabor\Downloads\of_v0.10.1_vs2017_release\apps\myApps_2\CP2_MeshShaderGeco_Merge_9\bin\CP2_MeshShaderGeco_Merge_7_debug.lib
C:\Users\gabor\Downloads\of_v0.10.1_vs2017_release\apps\myApps_2\CP2_MeshShaderGeco_Merge_9\bin\CP2_MeshShaderGeco_Merge_7_debug.exp
^C:\Users\gabor\Downloads\of_v0.10.1_vs2017_release\apps\myApps_2\CP2_MeshShaderGeco_Merge_9\CP2_MeshShaderGeco_Merge_7.vcxproj
C:\Users\gabor\Downloads\of_v0.10.1_vs2017_release\apps\myApps_2\CP2_MeshShaderGeco_Merge_9\bin\CP2_MeshShaderGeco_Merge_7_debug.lib
C:\Users\gabor\Downloads\of_v0.10.1_vs2017_release\apps\myApps_2\CP2_MeshShaderGeco_Merge_9\bin\CP2_MeshShaderGeco_Merge_7_debug.exp
^C:\Users\gabor\Downloads\of_v0.10.1_vs2017_release\apps\myApps_2\CP2_MeshShaderGeco_Merge_9\CP2_MeshShaderGeco_Merge_7.vcxproj
C:\Users\gabor\Downloads\of_v0.10.1_vs2017_release\apps\myApps_2\CP2_MeshShaderGeco_Merge_9\bin\CP2_MeshShaderGeco_Merge_7_debug.lib
C:\Users\gabor\Downloads\of_v0.10.1_vs2017_release\apps\myApps_2\CP2_MeshShaderGeco_Merge_9\bin\CP2_MeshShaderGeco_Merge_7_debug.exp
^C:\Users\gabor\Downloads\of_v0.10.1_vs2017_release\apps\myApps_2\CP2_MeshShaderGeco_Merge_9\CP2_MeshShaderGeco_Merge_7.vcxproj
C:\Users\gabor\Downloads\of_v0.10.1_vs2017_release\apps\myApps_2\CP2_MeshShaderGeco_Merge_9\bin\CP2_MeshShaderGeco_Merge_7_debug.lib
C:\Users\gabor\Downloads\of_v0.10.1_vs2017_release\apps\myApps_2\CP2_MeshShaderGeco_Merge_9\bin\CP2_MeshShaderGeco_Merge_7_debug.exp
^C:\Users\gabor\Downloads\of_v0.10.1_vs2017_release\apps\myApps_2\CP2_MeshShaderGeco_Merge_9\CP2_MeshShaderGeco_Merge_7.vcxproj
C:\Users\gabor\Downloads\of_v0.10.1_vs2017_release\apps\myApps_2\CP2_MeshShaderGeco_Merge_9\bin\CP2_MeshShaderGeco_Merge_7_debug.lib
C:\Users\gabor\Downloads\of_v0.10.1_vs2017_release\apps\myApps_2\CP2_MeshShaderGeco_Merge_9\bin\CP2_MeshShaderGeco_Merge_7_debug.exp
^C:\Users\gabor\Downloads\of_v0.10.1_vs2017_release\apps\myApps_2\CP2_MeshShaderGeco_Merge_9\CP2_MeshShaderGeco_Merge_7.vcxproj
C:\Users\gabor\Downloads\of_v0.10.1_vs2017_release\apps\myApps_2\CP2_MeshShaderGeco_Merge_9\bin\CP2_MeshShaderGeco_Merge_7_debug.lib
C:\Users\gabor\Downloads\of_v0.10.1_vs2017_release\apps\myApps_2\CP2_MeshShaderGeco_Merge_9\bin\CP2_MeshShaderGeco_Merge_7_debug.exp
^C:\Users\gabor\Downloads\of_v0.10.1_vs2017_release\apps\myApps_2\CP2_MeshShaderGeco_Merge_9\CP2_MeshShaderGeco_Merge_7.vcxproj
C:\Users\gabor\Downloads\of_v0.10.1_vs2017_release\apps\myApps_2\CP2_MeshShaderGeco_Merge_9\bin\CP2_MeshShaderGeco_Merge_7_debug.lib
C:\Users\gabor\Downloads\of_v0.10.1_vs2017_release\apps\myApps_2\CP2_MeshShaderGeco_Merge_9\bin\CP2_MeshShaderGeco_Merge_7_debug.exp
^C:\Users\gabor\Downloads\of_v0.10.1_vs2017_release\apps\myApps_2\CP2_MeshShaderGeco_Merge_9\CP2_MeshShaderGeco_Merge_7.vcxproj
C:\Users\gabor\Downloads\of_v0.10.1_vs2017_release\apps\myApps_2\CP2_MeshShaderGeco_Merge_9\bin\CP2_MeshShaderGeco_Merge_7_debug.lib
C:\Users\gabor\Downloads\of_v0.10.1_vs2017_release\apps\myApps_2\CP2_MeshShaderGeco_Merge_9\bin\CP2_MeshShaderGeco_Merge_7_debug.exp
^C:\Users\gabor\Downloads\of_v0.10.1_vs2017_release\apps\myApps_2\CP2_MeshShaderGeco_Merge_9\CP2_MeshShaderGeco_Merge_7.vcxproj
C:\Users\gabor\Downloads\of_v0.10.1_vs2017_release\apps\myApps_2\CP2_MeshShaderGeco_Merge_9\bin\CP2_MeshShaderGeco_Merge_7_debug.lib
C:\Users\gabor\Downloads\of_v0.10.1_vs2017_release\apps\myApps_2\CP2_MeshShaderGeco_Merge_9\bin\CP2_MeshShaderGeco_Merge_7_debug.exp
^C:\Users\gabor\Downloads\of_v0.10.1_vs2017_release\apps\myApps_2\CP2_MeshShaderGeco_Merge_9\CP2_MeshShaderGeco_Merge_7.vcxproj
C:\Users\gabor\Downloads\of_v0.10.1_vs2017_release\apps\myApps_2\CP2_MeshShaderGeco_Merge_9\bin\CP2_MeshShaderGeco_Merge_7_debug.lib
C:\Users\gabor\Downloads\of_v0.10.1_vs2017_release\apps\myApps_2\CP2_MeshShaderGeco_Merge_9\bin\CP2_MeshShaderGeco_Merge_7_debug.exp
^C:\Users\gabor\Downloads\of_v0.10.1_vs2017_release\apps\myApps_2\CP2_MeshShaderGeco_Merge_9\CP2_MeshShaderGeco_Merge_7.vcxproj
C:\Users\gabor\Downloads\of_v0.10.1_vs2017_release\apps\myApps_2\CP2_MeshShaderGeco_Merge_9\bin\CP2_MeshShaderGeco_Merge_7_debug.lib
C:\Users\gabor\Downloads\of_v0.10.1_vs2017_release\apps\myApps_2\CP2_MeshShaderGeco_Merge_9\bin\CP2_MeshShaderGeco_Merge_7_debug.exp
^C:\Users\gabor\Downloads\of_v0.10.1_vs2017_release\apps\myApps_2\CP2_MeshShaderGeco_Merge_9\CP2_MeshShaderGeco_Merge_7.vcxproj
C:\Users\gabor\Downloads\of_v0.10.1_vs2017_release\apps\myApps_2\CP2_MeshShaderGeco_Merge_9\bin\CP2_MeshShaderGeco_Merge_7_debug.lib
C:\Users\gabor\Downloads\of_v0.10.1_vs2017_release\apps\myApps_2\CP2_MeshShaderGeco_Merge_9\bin\CP2_MeshShaderGeco_Merge_7_debug.exp
^C:\Users\gabor\Downloads\of_v0.10.1_vs2017_release\apps\myApps_2\CP2_MeshShaderGeco_Merge_9\CP2_MeshShaderGeco_Merge_7.vcxproj
C:\Users\gabor\Downloads\of_v0.10.1_vs2017_release\apps\myApps_2\CP2_MeshShaderGeco_Merge_9\bin\CP2_MeshShaderGeco_Merge_7_debug.lib
C:\Users\gabor\Downloads\of_v0.10.1_vs2017_release\apps\myApps_2\CP2_MeshShaderGeco_Merge_9\bin\CP2_MeshShaderGeco_Merge_7_debug.exp
^C:\Users\gabor\Downloads\of_v0.10.1_vs2017_release\apps\myApps_2\CP2_MeshShaderGeco_Merge_9\CP2_MeshShaderGeco_Merge_7.vcxproj
C:\Users\gabor\Downloads\of_v0.10.1_vs2017_release\apps\myApps_2\CP2_MeshShaderGeco_Merge_9\bin\CP2_MeshShaderGeco_Merge_7_debug.lib
C:\Users\gabor\Downloads\of_v0.10.1_vs2017_release\apps\myApps_2\CP2_MeshShaderGeco_Merge_9\bin\CP2_MeshShaderGeco_Merge_7_debug.exp
^C:\Users\gabor\Downloads\of_v0.10.1_vs2017_release\apps\myApps_2\CP2_MeshShaderGeco_Merge_9\CP2_MeshShaderGeco_Merge_7.vcxproj
C:\Users\gabor\Downloads\of_v0.10.1_vs2017_release\apps\myApps_2\CP2_MeshShaderGeco_Merge_9\bin\CP2_MeshShaderGeco_Merge_7_debug.lib
C:\Users\gabor\Downloads\of_v0.10.1_vs2017_release\apps\myApps_2\CP2_MeshShaderGeco_Merge_9\bin\CP2_MeshShaderGeco_Merge_7_debug.exp
^C:\Users\gabor\Downloads\of_v0.10.1_vs2017_release\apps\myApps_2\CP2_MeshShaderGeco_Merge_9\CP2_MeshShaderGeco_Merge_7.vcxproj
C:\Users\gabor\Downloads\of_v0.10.1_vs2017_release\apps\myApps_2\CP2_MeshShaderGeco_Merge_9\bin\CP2_MeshShaderGeco_Merge_7_debug.lib
C:\Users\gabor\Downloads\of_v0.10.1_vs2017_release\apps\myApps_2\CP2_MeshShaderGeco_Merge_9\bin\CP2_MeshShaderGeco_Merge_7_debug.exp
^C:\Users\gabor\Downloads\of_v0.10.1_vs2017_release\apps\myApps_2\CP2_MeshShaderGeco_Merge_9\CP2_MeshShaderGeco_Merge_7.vcxproj
C:\Users\gabor\Downloads\of_v0.10.1_vs2017_release\apps\myApps_2\CP2_MeshShaderGeco_Merge_9\bin\CP2_MeshShaderGeco_Merge_7_debug.lib
C:\Users\gabor\Downloads\of_v0.10.1_vs2017_release\apps\myApps_2\CP2_MeshShaderGeco_Merge_9\bin\CP2_MeshShaderGeco_Merge_7_debug.exp
^C:\Users\gabor\Downloads\of_v0.10.1_vs2017_release\apps\myApps_2\CP2_MeshShaderGeco_Merge_9\CP2_MeshShaderGeco_Merge_7.vcxproj
C:\Users\gabor\Downloads\of_v0.10.1_vs2017_release\apps\myApps_2\CP2_MeshShaderGeco_Merge_9\bin\CP2_MeshShaderGeco_Merge_7_debug.lib
C:\Users\gabor\Downloads\of_v0.10.1_vs2017_release\apps\myApps_2\CP2_MeshShaderGeco_Merge_9\bin\CP2_MeshShaderGeco_Merge_7_debug.exp
^C:\Users\gabor\Downloads\of_v0.10.1_vs2017_release\apps\myApps_2\CP2_MeshShaderGeco_Merge_9\CP2_MeshShaderGeco_Merge_7.vcxproj
C:\Users\gabor\Downloads\of_v0.10.1_vs2017_release\apps\myApps_2\CP2_MeshShaderGeco_Merge_9\bin\CP2_MeshShaderGeco_Merge_7_debug.lib
C:\Users\gabor\Downloads\of_v0.10.1_vs2017_release\apps\myApps_2\CP2_MeshShaderGeco_Merge_9\bin\CP2_MeshShaderGeco_Merge_7_debug.exp
^C:\Users\gabor\Downloads\of_v0.10.1_vs2017_release\apps\myApps_2\CP2_MeshShaderGeco_Merge_9\CP2_MeshShaderGeco_Merge_7.vcxproj
C:\Users\gabor\Downloads\of_v0.10.1_vs2017_release\apps\myApps_2\CP2_MeshShaderGeco_Merge_9\bin\CP2_MeshShaderGeco_Merge_7_debug.lib
C:\Users\gabor\Downloads\of_v0.10.1_vs2017_release\apps\myApps_2\CP2_MeshShaderGeco_Merge_9\bin\CP2_MeshShaderGeco_Merge_7_debug.exp
^C:\Users\gabor\Downloads\of_v0.10.1_vs2017_release\apps\myApps_2\CP2_MeshShaderGeco_Merge_9\CP2_MeshShaderGeco_Merge_7.vcxproj
C:\Users\gabor\Downloads\of_v0.10.1_vs2017_release\apps\myApps_2\CP2_MeshShaderGeco_Merge_9\bin\CP2_MeshShaderGeco_Merge_7_debug.lib
C:\Users\gabor\Downloads\of_v0.10.1_vs2017_release\apps\myApps_2\CP2_MeshShaderGeco_Merge_9\bin\CP2_MeshShaderGeco_Merge_7_debug.exp
^C:\Users\gabor\Downloads\of_v0.10.1_vs2017_release\apps\myApps_2\CP2_MeshShaderGeco_Merge_9\CP2_MeshShaderGeco_Merge_7.vcxproj
C:\Users\gabor\Downloads\of_v0.10.1_vs2017_release\apps\myApps_2\CP2_MeshShaderGeco_Merge_9\bin\CP2_MeshShaderGeco_Merge_7_debug.lib
C:\Users\gabor\Downloads\of_v0.10.1_vs2017_release\apps\myApps_2\CP2_MeshShaderGeco_Merge_9\bin\CP2_MeshShaderGeco_Merge_7_debug.exp
^C:\Users\gabor\Downloads\of_v0.10.1_vs2017_release\apps\myApps_2\CP2_MeshShaderGeco_Merge_9\CP2_MeshShaderGeco_Merge_7.vcxproj
C:\Users\gabor\Downloads\of_v0.10.1_vs2017_release\apps\myApps_2\CP2_MeshShaderGeco_Merge_9\bin\CP2_MeshShaderGeco_Merge_7_debug.lib
C:\Users\gabor\Downloads\of_v0.10.1_vs2017_release\apps\myApps_2\CP2_MeshShaderGeco_Merge_9\bin\CP2_MeshShaderGeco_Merge_7_debug.exp
^C:\Users\gabor\Downloads\of_v0.10.1_vs2017_release\apps\myApps_2\CP2_MeshShaderGeco_Merge_9\CP2_MeshShaderGeco_Merge_7.vcxproj
C:\Users\gabor\Downloads\of_v0.10.1_vs2017_release\apps\myApps_2\CP2_MeshShaderGeco_Merge_9\bin\CP2_MeshShaderGeco_Merge_7_debug.lib
C:\Users\gabor\Downloads\of_v0.10.1_vs2017_release\apps\myApps_2\CP2_MeshShaderGeco_Merge_9\bin\CP2_MeshShaderGeco_Merge_7_debug.exp
^C:\Users\gabor\Downloads\of_v0.10.1_vs2017_release\apps\myApps_2\CP2_MeshShaderGeco_Merge_9\CP2_MeshShaderGeco_Merge_7.vcxproj
C:\Users\gabor\Downloads\of_v0.10.1_vs2017_release\apps\myApps_2\CP2_MeshShaderGeco_Merge_9\bin\CP2_MeshShaderGeco_Merge_7_debug.lib
C:\Users\gabor\Downloads\of_v0.10.1_vs2017_release\apps\myApps_2\CP2_MeshShaderGeco_Merge_9\bin\CP2_MeshShaderGeco_Merge_7_debug.exp
^C:\Users\gabor\Downloads\of_v0.10.1_vs2017_release\apps\myApps_2\CP2_MeshShaderGeco_Merge_9\CP2_MeshShaderGeco_Merge_7.vcxproj
C:\Users\gabor\Downloads\of_v0.10.1_vs2017_release\apps\myApps_2\CP2_MeshShaderGeco_Merge_9\bin\CP2_MeshShaderGeco_Merge_7_debug.lib
C:\Users\gabor\Downloads\of_v0.10.1_vs2017_release\apps\myApps_2\CP2_MeshShaderGeco_Merge_9\bin\CP2_MeshShaderGeco_Merge_7_debug.exp
^C:\Users\gabor\Downloads\of_v0.10.1_vs2017_release\apps\myApps_2\CP2_MeshShaderGeco_Merge_9\CP2_MeshShaderGeco_Merge_7.vcxproj
C:\Users\gabor\Downloads\of_v0.10.1_vs2017_release\apps\myApps_2\CP2_MeshShaderGeco_Merge_9\bin\CP2_MeshShaderGeco_Merge_7_debug.lib
C:\Users\gabor\Downloads\of_v0.10.1_vs2017_release\apps\myApps_2\CP2_MeshShaderGeco_Merge_9\bin\CP2_MeshShaderGeco_Merge_7_debug.exp
^C:\Users\gabor\Downloads\of_v0.10.1_vs2017_release\apps\myApps_2\CP2_MeshShaderGeco_Merge_9\CP2_MeshShaderGeco_Merge_7.vcxproj
C:\Users\gabor\Downloads\of_v0.10.1_vs2017_release\apps\myApps_2\CP2_MeshShaderGeco_Merge_9\bin\CP2_MeshShaderGeco_Merge_7_debug.lib
C:\Users\gabor\Downloads\of_v0.10.1_vs2017_release\apps\myApps_2\CP2_MeshShaderGeco_Merge_9\bin\CP2_MeshShaderGeco_Merge_7_debug.exp
^C:\Users\gabor\Downloads\of_v0.10.1_vs2017_release\apps\myApps_2\CP2_MeshShaderGeco_Merge_9\CP2_MeshShaderGeco_Merge_7.vcxproj
C:\Users\gabor\Downloads\of_v0.10.1_vs2017_release\apps\myApps_2\CP2_MeshShaderGeco_Merge_9\bin\CP2_MeshShaderGeco_Merge_7_debug.lib
C:\Users\gabor\Downloads\of_v0.10.1_vs2017_release\apps\myApps_2\CP2_MeshShaderGeco_Merge_9\bin\CP2_MeshShaderGeco_Merge_7_debug.exp
^C:\Users\gabor\Downloads\of_v0.10.1_vs2017_release\apps\myApps_2\CP2_MeshShaderGeco_Merge_9\CP2_MeshShaderGeco_Merge_7.vcxproj
C:\Users\gabor\Downloads\of_v0.10.1_vs2017_release\apps\myApps_2\CP2_MeshShaderGeco_Merge_9\bin\CP2_MeshShaderGeco_Merge_7_debug.lib
C:\Users\gabor\Downloads\of_v0.10.1_vs2017_release\apps\myApps_2\CP2_MeshShaderGeco_Merge_9\bin\CP2_MeshShaderGeco_Merge_7_debug.exp
^C:\Users\gabor\Downloads\of_v0.10.1_vs2017_release\apps\myApps_2\CP2_MeshShaderGeco_Merge_9\CP2_MeshShaderGeco_Merge_7.vcxproj
C:\Users\gabor\Downloads\of_v0.10.1_vs2017_release\apps\myApps_2\CP2_MeshShaderGeco_Merge_9\bin\CP2_MeshShaderGeco_Merge_7_debug.lib
C:\Users\gabor\Downloads\of_v0.10.1_vs2017_release\apps\myApps_2\CP2_MeshShaderGeco_Merge_9\bin\CP2_MeshShaderGeco_Merge_7_debug.exp
^C:\Users\gabor\Downloads\of_v0.10.1_vs2017_release\apps\myApps_2\CP2_MeshShaderGeco_Merge_9\CP2_MeshShaderGeco_Merge_7.vcxproj
C:\Users\gabor\Downloads\of_v0.10.1_vs2017_release\apps\myApps_2\CP2_MeshShaderGeco_Merge_9\bin\CP2_MeshShaderGeco_Merge_7_debug.lib
C:\Users\gabor\Downloads\of_v0.10.1_vs2017_release\apps\myApps_2\CP2_MeshShaderGeco_Merge_9\bin\CP2_MeshShaderGeco_Merge_7_debug.exp
^C:\Users\gabor\Downloads\of_v0.10.1_vs2017_release\apps\myApps_2\CP2_MeshShaderGeco_Merge_9\CP2_MeshShaderGeco_Merge_7.vcxproj
C:\Users\gabor\Downloads\of_v0.10.1_vs2017_release\apps\myApps_2\CP2_MeshShaderGeco_Merge_9\bin\CP2_MeshShaderGeco_Merge_7_debug.lib
C:\Users\gabor\Downloads\of_v0.10.1_vs2017_release\apps\myApps_2\CP2_MeshShaderGeco_Merge_9\bin\CP2_MeshShaderGeco_Merge_7_debug.exp
^C:\Users\gabor\Downloads\of_v0.10.1_vs2017_release\apps\myApps_2\CP2_MeshShaderGeco_Merge_9\CP2_MeshShaderGeco_Merge_7.vcxproj
C:\Users\gabor\Downloads\of_v0.10.1_vs2017_release\apps\myApps_2\CP2_MeshShaderGeco_Merge_9\bin\CP2_MeshShaderGeco_Merge_7_debug.lib
C:\Users\gabor\Downloads\of_v0.10.1_vs2017_release\apps\myApps_2\CP2_MeshShaderGeco_Merge_9\bin\CP2_MeshShaderGeco_Merge_7_debug.exp
^C:\Users\gabor\Downloads\of_v0.10.1_vs2017_release\apps\myApps_2\CP2_MeshShaderGeco_Merge_9\CP2_MeshShaderGeco_Merge_7.vcxproj
C:\Users\gabor\Downloads\of_v0.10.1_vs2017_release\apps\myApps_2\CP2_MeshShaderGeco_Merge_9\bin\CP2_MeshShaderGeco_Merge_7_debug.lib
C:\Users\gabor\Downloads\of_v0.10.1_vs2017_release\apps\myApps_2\CP2_MeshShaderGeco_Merge_9\bin\CP2_MeshShaderGeco_Merge_7_debug.exp
^C:\Users\gabor\Downloads\of_v0.10.1_vs2017_release\apps\myApps_2\CP2_MeshShaderGeco_Merge_9\CP2_MeshShaderGeco_Merge_7.vcxproj
C:\Users\gabor\Downloads\of_v0.10.1_vs2017_release\apps\myApps_2\CP2_MeshShaderGeco_Merge_9\bin\CP2_MeshShaderGeco_Merge_7_debug.lib
C:\Users\gabor\Downloads\of_v0.10.1_vs2017_release\apps\myApps_2\CP2_MeshShaderGeco_Merge_9\bin\CP2_MeshShaderGeco_Merge_7_debug.exp
^C:\Users\gabor\Downloads\of_v0.10.1_vs2017_release\apps\myApps_2\CP2_MeshShaderGeco_Merge_9\CP2_MeshShaderGeco_Merge_7.vcxproj
C:\Users\gabor\Downloads\of_v0.10.1_vs2017_release\apps\myApps_2\CP2_MeshShaderGeco_Merge_9\bin\CP2_MeshShaderGeco_Merge_7_debug.lib
C:\Users\gabor\Downloads\of_v0.10.1_vs2017_release\apps\myApps_2\CP2_MeshShaderGeco_Merge_9\bin\CP2_MeshShaderGeco_Merge_7_debug.exp
^C:\Users\gabor\Downloads\of_v0.10.1_vs2017_release\apps\myApps_2\CP2_MeshShaderGeco_Merge_9\CP2_MeshShaderGeco_Merge_7.vcxproj
C:\Users\gabor\Downloads\of_v0.10.1_vs2017_release\apps\myApps_2\CP2_MeshShaderGeco_Merge_9\bin\CP2_MeshShaderGeco_Merge_7_debug.lib
C:\Users\gabor\Downloads\of_v0.10.1_vs2017_release\apps\myApps_2\CP2_MeshShaderGeco_Merge_9\bin\CP2_MeshShaderGeco_Merge_7_debug.exp
^C:\Users\gabor\Downloads\of_v0.10.1_vs2017_release\apps\myApps_2\CP2_MeshShaderGeco_Merge_9\CP2_MeshShaderGeco_Merge_7.vcxproj
C:\Users\gabor\Downloads\of_v0.10.1_vs2017_release\apps\myApps_2\CP2_MeshShaderGeco_Merge_9\bin\CP2_MeshShaderGeco_Merge_7_debug.lib
C:\Users\gabor\Downloads\of_v0.10.1_vs2017_release\apps\myApps_2\CP2_MeshShaderGeco_Merge_9\bin\CP2_MeshShaderGeco_Merge_7_debug.exp
^C:\Users\gabor\Downloads\of_v0.10.1_vs2017_release\apps\myApps_2\CP2_MeshShaderGeco_Merge_9\CP2_MeshShaderGeco_Merge_7.vcxproj
C:\Users\gabor\Downloads\of_v0.10.1_vs2017_release\apps\myApps_2\CP2_MeshShaderGeco_Merge_9\bin\CP2_MeshShaderGeco_Merge_7_debug.lib
C:\Users\gabor\Downloads\of_v0.10.1_vs2017_release\apps\myApps_2\CP2_MeshShaderGeco_Merge_9\bin\CP2_MeshShaderGeco_Merge_7_debug.exp
^C:\Users\gabor\Downloads\of_v0.10.1_vs2017_release\apps\myApps_2\CP2_MeshShaderGeco_Merge_9\CP2_MeshShaderGeco_Merge_7.vcxproj
C:\Users\gabor\Downloads\of_v0.10.1_vs2017_release\apps\myApps_2\CP2_MeshShaderGeco_Merge_9\bin\CP2_MeshShaderGeco_Merge_7_debug.lib
C:\Users\gabor\Downloads\of_v0.10.1_vs2017_release\apps\myApps_2\CP2_MeshShaderGeco_Merge_9\bin\CP2_MeshShaderGeco_Merge_7_debug.exp
^C:\Users\gabor\Downloads\of_v0.10.1_vs2017_release\apps\myApps_2\CP2_MeshShaderGeco_Merge_9\CP2_MeshShaderGeco_Merge_7.vcxproj
C:\Users\gabor\Downloads\of_v0.10.1_vs2017_release\apps\myApps_2\CP2_MeshShaderGeco_Merge_9\bin\CP2_MeshShaderGeco_Merge_7_debug.lib
C:\Users\gabor\Downloads\of_v0.10.1_vs2017_release\apps\myApps_2\CP2_MeshShaderGeco_Merge_9\bin\CP2_MeshShaderGeco_Merge_7_debug.exp
^C:\Users\gabor\Downloads\of_v0.10.1_vs2017_release\apps\myApps_2\CP2_MeshShaderGeco_Merge_9\CP2_MeshShaderGeco_Merge_7.vcxproj
C:\Users\gabor\Downloads\of_v0.10.1_vs2017_release\apps\myApps_2\CP2_MeshShaderGeco_Merge_9\bin\CP2_MeshShaderGeco_Merge_7_debug.lib
C:\Users\gabor\Downloads\of_v0.10.1_vs2017_release\apps\myApps_2\CP2_MeshShaderGeco_Merge_9\bin\CP2_MeshShaderGeco_Merge_7_debug.exp
^C:\Users\gabor\Downloads\of_v0.10.1_vs2017_release\apps\myApps_2\CP2_MeshShaderGeco_Merge_9\CP2_MeshShaderGeco_Merge_7.vcxproj
C:\Users\gabor\Downloads\of_v0.10.1_vs2017_release\apps\myApps_2\CP2_MeshShaderGeco_Merge_9\bin\CP2_MeshShaderGeco_Merge_7_debug.lib
C:\Users\gabor\Downloads\of_v0.10.1_vs2017_release\apps\myApps_2\CP2_MeshShaderGeco_Merge_9\bin\CP2_MeshShaderGeco_Merge_7_debug.exp
^C:\Users\gabor\Downloads\of_v0.10.1_vs2017_release\apps\myApps_2\CP2_MeshShaderGeco_Merge_9\CP2_MeshShaderGeco_Merge_7.vcxproj
C:\Users\gabor\Downloads\of_v0.10.1_vs2017_release\apps\myApps_2\CP2_MeshShaderGeco_Merge_9\bin\CP2_MeshShaderGeco_Merge_7_debug.lib
C:\Users\gabor\Downloads\of_v0.10.1_vs2017_release\apps\myApps_2\CP2_MeshShaderGeco_Merge_9\bin\CP2_MeshShaderGeco_Merge_7_debug.exp
^C:\Users\gabor\Downloads\of_v0.10.1_vs2017_release\apps\myApps_2\CP2_MeshShaderGeco_Merge_9\CP2_MeshShaderGeco_Merge_7.vcxproj
C:\Users\gabor\Downloads\of_v0.10.1_vs2017_release\apps\myApps_2\CP2_MeshShaderGeco_Merge_9\bin\CP2_MeshShaderGeco_Merge_7_debug.lib
C:\Users\gabor\Downloads\of_v0.10.1_vs2017_release\apps\myApps_2\CP2_MeshShaderGeco_Merge_9\bin\CP2_MeshShaderGeco_Merge_7_debug.exp
^C:\Users\gabor\Downloads\of_v0.10.1_vs2017_release\apps\myApps_2\CP2_MeshShaderGeco_Merge_9\CP2_MeshShaderGeco_Merge_7.vcxproj
C:\Users\gabor\Downloads\of_v0.10.1_vs2017_release\apps\myApps_2\CP2_MeshShaderGeco_Merge_9\bin\CP2_MeshShaderGeco_Merge_7_debug.lib
C:\Users\gabor\Downloads\of_v0.10.1_vs2017_release\apps\myApps_2\CP2_MeshShaderGeco_Merge_9\bin\CP2_MeshShaderGeco_Merge_7_debug.exp
^C:\Users\gabor\Downloads\of_v0.10.1_vs2017_release\apps\myApps_2\CP2_MeshShaderGeco_Merge_9\CP2_MeshShaderGeco_Merge_7.vcxproj
C:\Users\gabor\Downloads\of_v0.10.1_vs2017_release\apps\myApps_2\CP2_MeshShaderGeco_Merge_9\bin\CP2_MeshShaderGeco_Merge_7_debug.lib
C:\Users\gabor\Downloads\of_v0.10.1_vs2017_release\apps\myApps_2\CP2_MeshShaderGeco_Merge_9\bin\CP2_MeshShaderGeco_Merge_7_debug.exp
^C:\Users\gabor\Downloads\of_v0.10.1_vs2017_release\apps\myApps_2\CP2_MeshShaderGeco_Merge_9\CP2_MeshShaderGeco_Merge_7.vcxproj
C:\Users\gabor\Downloads\of_v0.10.1_vs2017_release\apps\myApps_2\CP2_MeshShaderGeco_Merge_9\bin\CP2_MeshShaderGeco_Merge_7_debug.lib
C:\Users\gabor\Downloads\of_v0.10.1_vs2017_release\apps\myApps_2\CP2_MeshShaderGeco_Merge_9\bin\CP2_MeshShaderGeco_Merge_7_debug.exp
^C:\Users\gabor\Downloads\of_v0.10.1_vs2017_release\apps\myApps_2\CP2_MeshShaderGeco_Merge_9\CP2_MeshShaderGeco_Merge_7.vcxproj
C:\Users\gabor\Downloads\of_v0.10.1_vs2017_release\apps\myApps_2\CP2_MeshShaderGeco_Merge_9\bin\CP2_MeshShaderGeco_Merge_7_debug.lib
C:\Users\gabor\Downloads\of_v0.10.1_vs2017_release\apps\myApps_2\CP2_MeshShaderGeco_Merge_9\bin\CP2_MeshShaderGeco_Merge_7_debug.exp
^C:\Users\gabor\Downloads\of_v0.10.1_vs2017_release\apps\myApps_2\CP2_MeshShaderGeco_Merge_9\CP2_MeshShaderGeco_Merge_7.vcxproj
C:\Users\gabor\Downloads\of_v0.10.1_vs2017_release\apps\myApps_2\CP2_MeshShaderGeco_Merge_9\bin\CP2_MeshShaderGeco_Merge_7_debug.lib
C:\Users\gabor\Downloads\of_v0.10.1_vs2017_release\apps\myApps_2\CP2_MeshShaderGeco_Merge_9\bin\CP2_MeshShaderGeco_Merge_7_debug.exp
^C:\Users\gabor\Downloads\of_v0.10.1_vs2017_release\apps\myApps_2\CP2_MeshShaderGeco_Merge_9\CP2_MeshShaderGeco_Merge_7.vcxproj
C:\Users\gabor\Downloads\of_v0.10.1_vs2017_release\apps\myApps_2\CP2_MeshShaderGeco_Merge_9\bin\CP2_MeshShaderGeco_Merge_7_debug.lib
C:\Users\gabor\Downloads\of_v0.10.1_vs2017_release\apps\myApps_2\CP2_MeshShaderGeco_Merge_9\bin\CP2_MeshShaderGeco_Merge_7_debug.exp
^C:\Users\gabor\Downloads\of_v0.10.1_vs2017_release\apps\myApps_2\CP2_MeshShaderGeco_Merge_9\CP2_MeshShaderGeco_Merge_7.vcxproj
C:\Users\gabor\Downloads\of_v0.10.1_vs2017_release\apps\myApps_2\CP2_MeshShaderGeco_Merge_9\bin\CP2_MeshShaderGeco_Merge_7_debug.lib
C:\Users\gabor\Downloads\of_v0.10.1_vs2017_release\apps\myApps_2\CP2_MeshShaderGeco_Merge_9\bin\CP2_MeshShaderGeco_Merge_7_debug.exp
^C:\Users\gabor\Downloads\of_v0.10.1_vs2017_release\apps\myApps_2\CP2_MeshShaderGeco_Merge_9\CP2_MeshShaderGeco_Merge_7.vcxproj
C:\Users\gabor\Downloads\of_v0.10.1_vs2017_release\apps\myApps_2\CP2_MeshShaderGeco_Merge_9\bin\CP2_MeshShaderGeco_Merge_7_debug.lib
C:\Users\gabor\Downloads\of_v0.10.1_vs2017_release\apps\myApps_2\CP2_MeshShaderGeco_Merge_9\bin\CP2_MeshShaderGeco_Merge_7_debug.exp
^C:\Users\gabor\Downloads\of_v0.10.1_vs2017_release\apps\myApps_2\CP2_MeshShaderGeco_Merge_9\CP2_MeshShaderGeco_Merge_7.vcxproj
C:\Users\gabor\Downloads\of_v0.10.1_vs2017_release\apps\myApps_2\CP2_MeshShaderGeco_Merge_9\bin\CP2_MeshShaderGeco_Merge_7_debug.lib
C:\Users\gabor\Downloads\of_v0.10.1_vs2017_release\apps\myApps_2\CP2_MeshShaderGeco_Merge_9\bin\CP2_MeshShaderGeco_Merge_7_debug.exp
^C:\Users\gabor\Downloads\of_v0.10.1_vs2017_release\apps\myApps_2\CP2_MeshShaderGeco_Merge_9\CP2_MeshShaderGeco_Merge_7.vcxproj
C:\Users\gabor\Downloads\of_v0.10.1_vs2017_release\apps\myApps_2\CP2_MeshShaderGeco_Merge_9\bin\CP2_MeshShaderGeco_Merge_7_debug.lib
C:\Users\gabor\Downloads\of_v0.10.1_vs2017_release\apps\myApps_2\CP2_MeshShaderGeco_Merge_9\bin\CP2_MeshShaderGeco_Merge_7_debug.exp
^C:\Users\gabor\Downloads\of_v0.10.1_vs2017_release\apps\myApps_2\CP2_MeshShaderGeco_Merge_9\CP2_MeshShaderGeco_Merge_7.vcxproj
C:\Users\gabor\Downloads\of_v0.10.1_vs2017_release\apps\myApps_2\CP2_MeshShaderGeco_Merge_9\bin\CP2_MeshShaderGeco_Merge_7_debug.lib
C:\Users\gabor\Downloads\of_v0.10.1_vs2017_release\apps\myApps_2\CP2_MeshShaderGeco_Merge_9\bin\CP2_MeshShaderGeco_Merge_7_debug.exp
^C:\Users\gabor\Downloads\of_v0.10.1_vs2017_release\apps\myApps_2\CP2_MeshShaderGeco_Merge_9\CP2_MeshShaderGeco_Merge_7.vcxproj
C:\Users\gabor\Downloads\of_v0.10.1_vs2017_release\apps\myApps_2\CP2_MeshShaderGeco_Merge_9\bin\CP2_MeshShaderGeco_Merge_7_debug.lib
C:\Users\gabor\Downloads\of_v0.10.1_vs2017_release\apps\myApps_2\CP2_MeshShaderGeco_Merge_9\bin\CP2_MeshShaderGeco_Merge_7_debug.exp
^C:\Users\gabor\Downloads\of_v0.10.1_vs2017_release\apps\myApps_2\CP2_MeshShaderGeco_Merge_9\CP2_MeshShaderGeco_Merge_7.vcxproj
C:\Users\gabor\Downloads\of_v0.10.1_vs2017_release\apps\myApps_2\CP2_MeshShaderGeco_Merge_9\bin\CP2_MeshShaderGeco_Merge_7_debug.lib
C:\Users\gabor\Downloads\of_v0.10.1_vs2017_release\apps\myApps_2\CP2_MeshShaderGeco_Merge_9\bin\CP2_MeshShaderGeco_Merge_7_debug.exp
^C:\Users\gabor\Downloads\of_v0.10.1_vs2017_release\apps\myApps_2\CP2_MeshShaderGeco_Merge_9\CP2_MeshShaderGeco_Merge_7.vcxproj
C:\Users\gabor\Downloads\of_v0.10.1_vs2017_release\apps\myApps_2\CP2_MeshShaderGeco_Merge_9\bin\CP2_MeshShaderGeco_Merge_7_debug.lib
C:\Users\gabor\Downloads\of_v0.10.1_vs2017_release\apps\myApps_2\CP2_MeshShaderGeco_Merge_9\bin\CP2_MeshShaderGeco_Merge_7_debug.exp
^C:\Users\gabor\Downloads\of_v0.10.1_vs2017_release\apps\myApps_2\CP2_MeshShaderGeco_Merge_9\CP2_MeshShaderGeco_Merge_7.vcxproj
C:\Users\gabor\Downloads\of_v0.10.1_vs2017_release\apps\myApps_2\CP2_MeshShaderGeco_Merge_9\bin\CP2_MeshShaderGeco_Merge_7_debug.lib
C:\Users\gabor\Downloads\of_v0.10.1_vs2017_release\apps\myApps_2\CP2_MeshShaderGeco_Merge_9\bin\CP2_MeshShaderGeco_Merge_7_debug.exp
^C:\Users\gabor\Downloads\of_v0.10.1_vs2017_release\apps\myApps_2\CP2_MeshShaderGeco_Merge_9\CP2_MeshShaderGeco_Merge_7.vcxproj
C:\Users\gabor\Downloads\of_v0.10.1_vs2017_release\apps\myApps_2\CP2_MeshShaderGeco_Merge_9\bin\CP2_MeshShaderGeco_Merge_7_debug.lib
C:\Users\gabor\Downloads\of_v0.10.1_vs2017_release\apps\myApps_2\CP2_MeshShaderGeco_Merge_9\bin\CP2_MeshShaderGeco_Merge_7_debug.exp
^C:\Users\gabor\Downloads\of_v0.10.1_vs2017_release\apps\myApps_2\CP2_MeshShaderGeco_Merge_9\CP2_MeshShaderGeco_Merge_7.vcxproj
C:\Users\gabor\Downloads\of_v0.10.1_vs2017_release\apps\myApps_2\CP2_MeshShaderGeco_Merge_9\bin\CP2_MeshShaderGeco_Merge_7_debug.lib
C:\Users\gabor\Downloads\of_v0.10.1_vs2017_release\apps\myApps_2\CP2_MeshShaderGeco_Merge_9\bin\CP2_MeshShaderGeco_Merge_7_debug.exp
^C:\Users\gabor\Downloads\of_v0.10.1_vs2017_release\apps\myApps_2\CP2_MeshShaderGeco_Merge_9\CP2_MeshShaderGeco_Merge_7.vcxproj
C:\Users\gabor\Downloads\of_v0.10.1_vs2017_release\apps\myApps_2\CP2_MeshShaderGeco_Merge_9\bin\CP2_MeshShaderGeco_Merge_7_debug.lib
C:\Users\gabor\Downloads\of_v0.10.1_vs2017_release\apps\myApps_2\CP2_MeshShaderGeco_Merge_9\bin\CP2_MeshShaderGeco_Merge_7_debug.exp
^C:\Users\gabor\Downloads\of_v0.10.1_vs2017_release\apps\myApps_2\CP2_MeshShaderGeco_Merge_9\CP2_MeshShaderGeco_Merge_7.vcxproj
C:\Users\gabor\Downloads\of_v0.10.1_vs2017_release\apps\myApps_2\CP2_MeshShaderGeco_Merge_9\bin\CP2_MeshShaderGeco_Merge_7_debug.lib
C:\Users\gabor\Downloads\of_v0.10.1_vs2017_release\apps\myApps_2\CP2_MeshShaderGeco_Merge_9\bin\CP2_MeshShaderGeco_Merge_7_debug.exp
^C:\Users\gabor\Downloads\of_v0.10.1_vs2017_release\apps\myApps_2\CP2_MeshShaderGeco_Merge_9\CP2_MeshShaderGeco_Merge_7.vcxproj
C:\Users\gabor\Downloads\of_v0.10.1_vs2017_release\apps\myApps_2\CP2_MeshShaderGeco_Merge_9\bin\CP2_MeshShaderGeco_Merge_7_debug.lib
C:\Users\gabor\Downloads\of_v0.10.1_vs2017_release\apps\myApps_2\CP2_MeshShaderGeco_Merge_9\bin\CP2_MeshShaderGeco_Merge_7_debug.exp
^C:\Users\gabor\Downloads\of_v0.10.1_vs2017_release\apps\myApps_2\CP2_MeshShaderGeco_Merge_9\CP2_MeshShaderGeco_Merge_7.vcxproj
C:\Users\gabor\Downloads\of_v0.10.1_vs2017_release\apps\myApps_2\CP2_MeshShaderGeco_Merge_9\bin\CP2_MeshShaderGeco_Merge_7_debug.lib
C:\Users\gabor\Downloads\of_v0.10.1_vs2017_release\apps\myApps_2\CP2_MeshShaderGeco_Merge_9\bin\CP2_MeshShaderGeco_Merge_7_debug.exp
^C:\Users\gabor\Downloads\of_v0.10.1_vs2017_release\apps\myApps_2\CP2_MeshShaderGeco_Merge_9\CP2_MeshShaderGeco_Merge_7.vcxproj
C:\Users\gabor\Downloads\of_v0.10.1_vs2017_release\apps\myApps_2\CP2_MeshShaderGeco_Merge_9\bin\CP2_MeshShaderGeco_Merge_7_debug.lib
C:\Users\gabor\Downloads\of_v0.10.1_vs2017_release\apps\myApps_2\CP2_MeshShaderGeco_Merge_9\bin\CP2_MeshShaderGeco_Merge_7_debug.exp
^C:\Users\gabor\Downloads\of_v0.10.1_vs2017_release\apps\myApps_2\CP2_MeshShaderGeco_Merge_9\CP2_MeshShaderGeco_Merge_7.vcxproj
C:\Users\gabor\Downloads\of_v0.10.1_vs2017_release\apps\myApps_2\CP2_MeshShaderGeco_Merge_9\bin\CP2_MeshShaderGeco_Merge_7_debug.lib
C:\Users\gabor\Downloads\of_v0.10.1_vs2017_release\apps\myApps_2\CP2_MeshShaderGeco_Merge_9\bin\CP2_MeshShaderGeco_Merge_7_debug.exp
^C:\Users\gabor\Downloads\of_v0.10.1_vs2017_release\apps\myApps_2\CP2_MeshShaderGeco_Merge_9\CP2_MeshShaderGeco_Merge_7.vcxproj
C:\Users\gabor\Downloads\of_v0.10.1_vs2017_release\apps\myApps_2\CP2_MeshShaderGeco_Merge_9\bin\CP2_MeshShaderGeco_Merge_7_debug.lib
C:\Users\gabor\Downloads\of_v0.10.1_vs2017_release\apps\myApps_2\CP2_MeshShaderGeco_Merge_9\bin\CP2_MeshShaderGeco_Merge_7_debug.exp
^C:\Users\gabor\Downloads\of_v0.10.1_vs2017_release\apps\myApps_2\CP2_MeshShaderGeco_Merge_9\CP2_MeshShaderGeco_Merge_7.vcxproj
C:\Users\gabor\Downloads\of_v0.10.1_vs2017_release\apps\myApps_2\CP2_MeshShaderGeco_Merge_9\bin\CP2_MeshShaderGeco_Merge_7_debug.lib
C:\Users\gabor\Downloads\of_v0.10.1_vs2017_release\apps\myApps_2\CP2_MeshShaderGeco_Merge_9\bin\CP2_MeshShaderGeco_Merge_7_debug.exp
^C:\Users\gabor\Downloads\of_v0.10.1_vs2017_release\apps\myApps_2\CP2_MeshShaderGeco_Merge_9\CP2_MeshShaderGeco_Merge_7.vcxproj
C:\Users\gabor\Downloads\of_v0.10.1_vs2017_release\apps\myApps_2\CP2_MeshShaderGeco_Merge_9\bin\CP2_MeshShaderGeco_Merge_7_debug.lib
C:\Users\gabor\Downloads\of_v0.10.1_vs2017_release\apps\myApps_2\CP2_MeshShaderGeco_Merge_9\bin\CP2_MeshShaderGeco_Merge_7_debug.exp
^C:\Users\gabor\Downloads\of_v0.10.1_vs2017_release\apps\myApps_2\CP2_MeshShaderGeco_Merge_9\CP2_MeshShaderGeco_Merge_7.vcxproj
C:\Users\gabor\Downloads\of_v0.10.1_vs2017_release\apps\myApps_2\CP2_MeshShaderGeco_Merge_9\bin\CP2_MeshShaderGeco_Merge_7_debug.lib
C:\Users\gabor\Downloads\of_v0.10.1_vs2017_release\apps\myApps_2\CP2_MeshShaderGeco_Merge_9\bin\CP2_MeshShaderGeco_Merge_7_debug.exp
^C:\Users\gabor\Downloads\of_v0.10.1_vs2017_release\apps\myApps_2\CP2_MeshShaderGeco_Merge_9\CP2_MeshShaderGeco_Merge_7.vcxproj
C:\Users\gabor\Downloads\of_v0.10.1_vs2017_release\apps\myApps_2\CP2_MeshShaderGeco_Merge_9\bin\CP2_MeshShaderGeco_Merge_7_debug.lib
C:\Users\gabor\Downloads\of_v0.10.1_vs2017_release\apps\myApps_2\CP2_MeshShaderGeco_Merge_9\bin\CP2_MeshShaderGeco_Merge_7_debug.exp
^C:\Users\gabor\Downloads\of_v0.10.1_vs2017_release\apps\myApps_2\CP2_MeshShaderGeco_Merge_9\CP2_MeshShaderGeco_Merge_7.vcxproj
C:\Users\gabor\Downloads\of_v0.10.1_vs2017_release\apps\myApps_2\CP2_MeshShaderGeco_Merge_9\bin\CP2_MeshShaderGeco_Merge_7_debug.lib
C:\Users\gabor\Downloads\of_v0.10.1_vs2017_release\apps\myApps_2\CP2_MeshShaderGeco_Merge_9\bin\CP2_MeshShaderGeco_Merge_7_debug.exp
^C:\Users\gabor\Downloads\of_v0.10.1_vs2017_release\apps\myApps_2\CP2_MeshShaderGeco_Merge_9\CP2_MeshShaderGeco_Merge_7.vcxproj
C:\Users\gabor\Downloads\of_v0.10.1_vs2017_release\apps\myApps_2\CP2_MeshShaderGeco_Merge_9\bin\CP2_MeshShaderGeco_Merge_7_debug.lib
C:\Users\gabor\Downloads\of_v0.10.1_vs2017_release\apps\myApps_2\CP2_MeshShaderGeco_Merge_9\bin\CP2_MeshShaderGeco_Merge_7_debug.exp
^C:\Users\gabor\Downloads\of_v0.10.1_vs2017_release\apps\myApps_2\CP2_MeshShaderGeco_Merge_9\CP2_MeshShaderGeco_Merge_7.vcxproj
C:\Users\gabor\Downloads\of_v0.10.1_vs2017_release\apps\myApps_2\CP2_MeshShaderGeco_Merge_9\bin\CP2_MeshShaderGeco_Merge_7_debug.lib
C:\Users\gabor\Downloads\of_v0.10.1_vs2017_release\apps\myApps_2\CP2_MeshShaderGeco_Merge_9\bin\CP2_MeshShaderGeco_Merge_7_debug.exp
^C:\Users\gabor\Downloads\of_v0.10.1_vs2017_release\apps\myApps_2\CP2_MeshShaderGeco_Merge_9\CP2_MeshShaderGeco_Merge_7.vcxproj
C:\Users\gabor\Downloads\of_v0.10.1_vs2017_release\apps\myApps_2\CP2_MeshShaderGeco_Merge_9\bin\CP2_MeshShaderGeco_Merge_7_debug.lib
C:\Users\gabor\Downloads\of_v0.10.1_vs2017_release\apps\myApps_2\CP2_MeshShaderGeco_Merge_9\bin\CP2_MeshShaderGeco_Merge_7_debug.exp
^C:\Users\gabor\Downloads\of_v0.10.1_vs2017_release\apps\myApps_2\CP2_MeshShaderGeco_Merge_9\CP2_MeshShaderGeco_Merge_7.vcxproj
C:\Users\gabor\Downloads\of_v0.10.1_vs2017_release\apps\myApps_2\CP2_MeshShaderGeco_Merge_9\bin\CP2_MeshShaderGeco_Merge_7_debug.lib
C:\Users\gabor\Downloads\of_v0.10.1_vs2017_release\apps\myApps_2\CP2_MeshShaderGeco_Merge_9\bin\CP2_MeshShaderGeco_Merge_7_debug.exp
^C:\Users\gabor\Downloads\of_v0.10.1_vs2017_release\apps\myApps_2\CP2_MeshShaderGeco_Merge_9\CP2_MeshShaderGeco_Merge_7.vcxproj
C:\Users\gabor\Downloads\of_v0.10.1_vs2017_release\apps\myApps_2\CP2_MeshShaderGeco_Merge_9\bin\CP2_MeshShaderGeco_Merge_7_debug.lib
C:\Users\gabor\Downloads\of_v0.10.1_vs2017_release\apps\myApps_2\CP2_MeshShaderGeco_Merge_9\bin\CP2_MeshShaderGeco_Merge_7_debug.exp
^C:\Users\gabor\Downloads\of_v0.10.1_vs2017_release\apps\myApps_2\CP2_MeshShaderGeco_Merge_9\CP2_MeshShaderGeco_Merge_7.vcxproj
C:\Users\gabor\Downloads\of_v0.10.1_vs2017_release\apps\myApps_2\CP2_MeshShaderGeco_Merge_9\bin\CP2_MeshShaderGeco_Merge_7_debug.lib
C:\Users\gabor\Downloads\of_v0.10.1_vs2017_release\apps\myApps_2\CP2_MeshShaderGeco_Merge_9\bin\CP2_MeshShaderGeco_Merge_7_debug.exp
^C:\Users\gabor\Downloads\of_v0.10.1_vs2017_release\apps\myApps_2\CP2_MeshShaderGeco_Merge_9\CP2_MeshShaderGeco_Merge_7.vcxproj
C:\Users\gabor\Downloads\of_v0.10.1_vs2017_release\apps\myApps_2\CP2_MeshShaderGeco_Merge_9\bin\CP2_MeshShaderGeco_Merge_7_debug.lib
C:\Users\gabor\Downloads\of_v0.10.1_vs2017_release\apps\myApps_2\CP2_MeshShaderGeco_Merge_9\bin\CP2_MeshShaderGeco_Merge_7_debug.exp
^C:\Users\gabor\Downloads\of_v0.10.1_vs2017_release\apps\myApps_2\CP2_MeshShaderGeco_Merge_9\CP2_MeshShaderGeco_Merge_7.vcxproj
C:\Users\gabor\Downloads\of_v0.10.1_vs2017_release\apps\myApps_2\CP2_MeshShaderGeco_Merge_9\bin\CP2_MeshShaderGeco_Merge_7_debug.lib
C:\Users\gabor\Downloads\of_v0.10.1_vs2017_release\apps\myApps_2\CP2_MeshShaderGeco_Merge_9\bin\CP2_MeshShaderGeco_Merge_7_debug.exp
^C:\Users\gabor\Downloads\of_v0.10.1_vs2017_release\apps\myApps_2\CP2_MeshShaderGeco_Merge_9\CP2_MeshShaderGeco_Merge_7.vcxproj
C:\Users\gabor\Downloads\of_v0.10.1_vs2017_release\apps\myApps_2\CP2_MeshShaderGeco_Merge_9\bin\CP2_MeshShaderGeco_Merge_7_debug.lib
C:\Users\gabor\Downloads\of_v0.10.1_vs2017_release\apps\myApps_2\CP2_MeshShaderGeco_Merge_9\bin\CP2_MeshShaderGeco_Merge_7_debug.exp
^C:\Users\gabor\Downloads\of_v0.10.1_vs2017_release\apps\myApps_2\CP2_MeshShaderGeco_Merge_9\CP2_MeshShaderGeco_Merge_7.vcxproj
C:\Users\gabor\Downloads\of_v0.10.1_vs2017_release\apps\myApps_2\CP2_MeshShaderGeco_Merge_9\bin\CP2_MeshShaderGeco_Merge_7_debug.lib
C:\Users\gabor\Downloads\of_v0.10.1_vs2017_release\apps\myApps_2\CP2_MeshShaderGeco_Merge_9\bin\CP2_MeshShaderGeco_Merge_7_debug.exp
^C:\Users\gabor\Downloads\of_v0.10.1_vs2017_release\apps\myApps_2\CP2_MeshShaderGeco_Merge_9\CP2_MeshShaderGeco_Merge_7.vcxproj
C:\Users\gabor\Downloads\of_v0.10.1_vs2017_release\apps\myApps_2\CP2_MeshShaderGeco_Merge_9\bin\CP2_MeshShaderGeco_Merge_7_debug.lib
C:\Users\gabor\Downloads\of_v0.10.1_vs2017_release\apps\myApps_2\CP2_MeshShaderGeco_Merge_9\bin\CP2_MeshShaderGeco_Merge_7_debug.exp
^C:\Users\gabor\Downloads\of_v0.10.1_vs2017_release\apps\myApps_2\CP2_MeshShaderGeco_Merge_9\CP2_MeshShaderGeco_Merge_7.vcxproj
C:\Users\gabor\Downloads\of_v0.10.1_vs2017_release\apps\myApps_2\CP2_MeshShaderGeco_Merge_9\bin\CP2_MeshShaderGeco_Merge_7_debug.lib
C:\Users\gabor\Downloads\of_v0.10.1_vs2017_release\apps\myApps_2\CP2_MeshShaderGeco_Merge_9\bin\CP2_MeshShaderGeco_Merge_7_debug.exp
^C:\Users\gabor\Downloads\of_v0.10.1_vs2017_release\apps\myApps_2\CP2_MeshShaderGeco_Merge_9\CP2_MeshShaderGeco_Merge_7.vcxproj
C:\Users\gabor\Downloads\of_v0.10.1_vs2017_release\apps\myApps_2\CP2_MeshShaderGeco_Merge_9\bin\CP2_MeshShaderGeco_Merge_7_debug.lib
C:\Users\gabor\Downloads\of_v0.10.1_vs2017_release\apps\myApps_2\CP2_MeshShaderGeco_Merge_9\bin\CP2_MeshShaderGeco_Merge_7_debug.exp
^C:\Users\gabor\Downloads\of_v0.10.1_vs2017_release\apps\myApps_2\CP2_MeshShaderGeco_Merge_9\CP2_MeshShaderGeco_Merge_7.vcxproj
C:\Users\gabor\Downloads\of_v0.10.1_vs2017_release\apps\myApps_2\CP2_MeshShaderGeco_Merge_9\bin\CP2_MeshShaderGeco_Merge_7_debug.lib
C:\Users\gabor\Downloads\of_v0.10.1_vs2017_release\apps\myApps_2\CP2_MeshShaderGeco_Merge_9\bin\CP2_MeshShaderGeco_Merge_7_debug.exp
^C:\Users\gabor\Downloads\of_v0.10.1_vs2017_release\apps\myApps_2\CP2_MeshShaderGeco_Merge_9\CP2_MeshShaderGeco_Merge_7.vcxproj
C:\Users\gabor\Downloads\of_v0.10.1_vs2017_release\apps\myApps_2\CP2_MeshShaderGeco_Merge_9\bin\CP2_MeshShaderGeco_Merge_7_debug.lib
C:\Users\gabor\Downloads\of_v0.10.1_vs2017_release\apps\myApps_2\CP2_MeshShaderGeco_Merge_9\bin\CP2_MeshShaderGeco_Merge_7_debug.exp
^C:\Users\gabor\Downloads\of_v0.10.1_vs2017_release\apps\myApps_2\CP2_MeshShaderGeco_Merge_9\CP2_MeshShaderGeco_Merge_7.vcxproj
C:\Users\gabor\Downloads\of_v0.10.1_vs2017_release\apps\myApps_2\CP2_MeshShaderGeco_Merge_9\bin\CP2_MeshShaderGeco_Merge_7_debug.lib
C:\Users\gabor\Downloads\of_v0.10.1_vs2017_release\apps\myApps_2\CP2_MeshShaderGeco_Merge_9\bin\CP2_MeshShaderGeco_Merge_7_debug.exp
^C:\Users\gabor\Downloads\of_v0.10.1_vs2017_release\apps\myApps_2\CP2_MeshShaderGeco_Merge_9\CP2_MeshShaderGeco_Merge_7.vcxproj
C:\Users\gabor\Downloads\of_v0.10.1_vs2017_release\apps\myApps_2\CP2_MeshShaderGeco_Merge_9\bin\CP2_MeshShaderGeco_Merge_7_debug.lib
C:\Users\gabor\Downloads\of_v0.10.1_vs2017_release\apps\myApps_2\CP2_MeshShaderGeco_Merge_9\bin\CP2_MeshShaderGeco_Merge_7_debug.exp
^C:\Users\gabor\Downloads\of_v0.10.1_vs2017_release\apps\myApps_2\CP2_MeshShaderGeco_Merge_9\CP2_MeshShaderGeco_Merge_7.vcxproj
C:\Users\gabor\Downloads\of_v0.10.1_vs2017_release\apps\myApps_2\CP2_MeshShaderGeco_Merge_9\bin\CP2_MeshShaderGeco_Merge_7_debug.lib
C:\Users\gabor\Downloads\of_v0.10.1_vs2017_release\apps\myApps_2\CP2_MeshShaderGeco_Merge_9\bin\CP2_MeshShaderGeco_Merge_7_debug.exp
^C:\Users\gabor\Downloads\of_v0.10.1_vs2017_release\apps\myApps_2\CP2_MeshShaderGeco_Merge_9\CP2_MeshShaderGeco_Merge_7.vcxproj
C:\Users\gabor\Downloads\of_v0.10.1_vs2017_release\apps\myApps_2\CP2_MeshShaderGeco_Merge_9\bin\CP2_MeshShaderGeco_Merge_7_debug.lib
C:\Users\gabor\Downloads\of_v0.10.1_vs2017_release\apps\myApps_2\CP2_MeshShaderGeco_Merge_9\bin\CP2_MeshShaderGeco_Merge_7_debug.exp
^C:\Users\gabor\Downloads\of_v0.10.1_vs2017_release\apps\myApps_2\CP2_MeshShaderGeco_Merge_9\CP2_MeshShaderGeco_Merge_7.vcxproj
C:\Users\gabor\Downloads\of_v0.10.1_vs2017_release\apps\myApps_2\CP2_MeshShaderGeco_Merge_9\bin\CP2_MeshShaderGeco_Merge_7_debug.lib
C:\Users\gabor\Downloads\of_v0.10.1_vs2017_release\apps\myApps_2\CP2_MeshShaderGeco_Merge_9\bin\CP2_MeshShaderGeco_Merge_7_debug.exp
^C:\Users\gabor\Downloads\of_v0.10.1_vs2017_release\apps\myApps_2\CP2_MeshShaderGeco_Merge_9\CP2_MeshShaderGeco_Merge_7.vcxproj
C:\Users\gabor\Downloads\of_v0.10.1_vs2017_release\apps\myApps_2\CP2_MeshShaderGeco_Merge_9\bin\CP2_MeshShaderGeco_Merge_7_debug.lib
C:\Users\gabor\Downloads\of_v0.10.1_vs2017_release\apps\myApps_2\CP2_MeshShaderGeco_Merge_9\bin\CP2_MeshShaderGeco_Merge_7_debug.exp
^C:\Users\gabor\Downloads\of_v0.10.1_vs2017_release\apps\myApps_2\CP2_MeshShaderGeco_Merge_9\CP2_MeshShaderGeco_Merge_7.vcxproj
C:\Users\gabor\Downloads\of_v0.10.1_vs2017_release\apps\myApps_2\CP2_MeshShaderGeco_Merge_9\bin\CP2_MeshShaderGeco_Merge_7_debug.lib
C:\Users\gabor\Downloads\of_v0.10.1_vs2017_release\apps\myApps_2\CP2_MeshShaderGeco_Merge_9\bin\CP2_MeshShaderGeco_Merge_7_debug.exp
^C:\Users\gabor\Downloads\of_v0.10.1_vs2017_release\apps\myApps_2\CP2_MeshShaderGeco_Merge_9\CP2_MeshShaderGeco_Merge_7.vcxproj
C:\Users\gabor\Downloads\of_v0.10.1_vs2017_release\apps\myApps_2\CP2_MeshShaderGeco_Merge_9\bin\CP2_MeshShaderGeco_Merge_7_debug.lib
C:\Users\gabor\Downloads\of_v0.10.1_vs2017_release\apps\myApps_2\CP2_MeshShaderGeco_Merge_9\bin\CP2_MeshShaderGeco_Merge_7_debug.exp
^C:\Users\gabor\Downloads\of_v0.10.1_vs2017_release\apps\myApps_2\CP2_MeshShaderGeco_Merge_9\CP2_MeshShaderGeco_Merge_7.vcxproj
C:\Users\gabor\Downloads\of_v0.10.1_vs2017_release\apps\myApps_2\CP2_MeshShaderGeco_Merge_9\bin\CP2_MeshShaderGeco_Merge_7_debug.lib
C:\Users\gabor\Downloads\of_v0.10.1_vs2017_release\apps\myApps_2\CP2_MeshShaderGeco_Merge_9\bin\CP2_MeshShaderGeco_Merge_7_debug.exp
^C:\Users\gabor\Downloads\of_v0.10.1_vs2017_release\apps\myApps_2\CP2_MeshShaderGeco_Merge_9\CP2_MeshShaderGeco_Merge_7.vcxproj
C:\Users\gabor\Downloads\of_v0.10.1_vs2017_release\apps\myApps_2\CP2_MeshShaderGeco_Merge_9\bin\CP2_MeshShaderGeco_Merge_7_debug.lib
C:\Users\gabor\Downloads\of_v0.10.1_vs2017_release\apps\myApps_2\CP2_MeshShaderGeco_Merge_9\bin\CP2_MeshShaderGeco_Merge_7_debug.exp
^C:\Users\gabor\Downloads\of_v0.10.1_vs2017_release\apps\myApps_2\CP2_MeshShaderGeco_Merge_9\CP2_MeshShaderGeco_Merge_7.vcxproj
C:\Users\gabor\Downloads\of_v0.10.1_vs2017_release\apps\myApps_2\CP2_MeshShaderGeco_Merge_9\bin\CP2_MeshShaderGeco_Merge_7_debug.lib
C:\Users\gabor\Downloads\of_v0.10.1_vs2017_release\apps\myApps_2\CP2_MeshShaderGeco_Merge_9\bin\CP2_MeshShaderGeco_Merge_7_debug.exp
^C:\Users\gabor\Downloads\of_v0.10.1_vs2017_release\apps\myApps_2\CP2_MeshShaderGeco_Merge_9\CP2_MeshShaderGeco_Merge_7.vcxproj
C:\Users\gabor\Downloads\of_v0.10.1_vs2017_release\apps\myApps_2\CP2_MeshShaderGeco_Merge_9\bin\CP2_MeshShaderGeco_Merge_7_debug.lib
C:\Users\gabor\Downloads\of_v0.10.1_vs2017_release\apps\myApps_2\CP2_MeshShaderGeco_Merge_9\bin\CP2_MeshShaderGeco_Merge_7_debug.exp
^C:\Users\gabor\Downloads\of_v0.10.1_vs2017_release\apps\myApps_2\CP2_MeshShaderGeco_Merge_9\CP2_MeshShaderGeco_Merge_7.vcxproj
C:\Users\gabor\Downloads\of_v0.10.1_vs2017_release\apps\myApps_2\CP2_MeshShaderGeco_Merge_9\bin\CP2_MeshShaderGeco_Merge_7_debug.lib
C:\Users\gabor\Downloads\of_v0.10.1_vs2017_release\apps\myApps_2\CP2_MeshShaderGeco_Merge_9\bin\CP2_MeshShaderGeco_Merge_7_debug.exp
^C:\Users\gabor\Downloads\of_v0.10.1_vs2017_release\apps\myApps_2\CP2_MeshShaderGeco_Merge_9\CP2_MeshShaderGeco_Merge_7.vcxproj
C:\Users\gabor\Downloads\of_v0.10.1_vs2017_release\apps\myApps_2\CP2_MeshShaderGeco_Merge_9\bin\CP2_MeshShaderGeco_Merge_7_debug.lib
C:\Users\gabor\Downloads\of_v0.10.1_vs2017_release\apps\myApps_2\CP2_MeshShaderGeco_Merge_9\bin\CP2_MeshShaderGeco_Merge_7_debug.exp
^C:\Users\gabor\Downloads\of_v0.10.1_vs2017_release\apps\myApps_2\CP2_MeshShaderGeco_Merge_9\CP2_MeshShaderGeco_Merge_7.vcxproj
C:\Users\gabor\Downloads\of_v0.10.1_vs2017_release\apps\myApps_2\CP2_MeshShaderGeco_Merge_9\bin\CP2_MeshShaderGeco_Merge_7_debug.lib
C:\Users\gabor\Downloads\of_v0.10.1_vs2017_release\apps\myApps_2\CP2_MeshShaderGeco_Merge_9\bin\CP2_MeshShaderGeco_Merge_7_debug.exp
^C:\Users\gabor\Downloads\of_v0.10.1_vs2017_release\apps\myApps_2\CP2_MeshShaderGeco_Merge_9\CP2_MeshShaderGeco_Merge_7.vcxproj
C:\Users\gabor\Downloads\of_v0.10.1_vs2017_release\apps\myApps_2\CP2_MeshShaderGeco_Merge_9\bin\CP2_MeshShaderGeco_Merge_7_debug.lib
C:\Users\gabor\Downloads\of_v0.10.1_vs2017_release\apps\myApps_2\CP2_MeshShaderGeco_Merge_9\bin\CP2_MeshShaderGeco_Merge_7_debug.exp
^C:\Users\gabor\Downloads\of_v0.10.1_vs2017_release\apps\myApps_2\CP2_MeshShaderGeco_Merge_9\CP2_MeshShaderGeco_Merge_7.vcxproj
C:\Users\gabor\Downloads\of_v0.10.1_vs2017_release\apps\myApps_2\CP2_MeshShaderGeco_Merge_9\bin\CP2_MeshShaderGeco_Merge_7_debug.lib
C:\Users\gabor\Downloads\of_v0.10.1_vs2017_release\apps\myApps_2\CP2_MeshShaderGeco_Merge_9\bin\CP2_MeshShaderGeco_Merge_7_debug.exp
^C:\Users\gabor\Downloads\of_v0.10.1_vs2017_release\apps\myApps_2\CP2_MeshShaderGeco_Merge_9\CP2_MeshShaderGeco_Merge_7.vcxproj
C:\Users\gabor\Downloads\of_v0.10.1_vs2017_release\apps\myApps_2\CP2_MeshShaderGeco_Merge_9\bin\CP2_MeshShaderGeco_Merge_7_debug.lib
C:\Users\gabor\Downloads\of_v0.10.1_vs2017_release\apps\myApps_2\CP2_MeshShaderGeco_Merge_9\bin\CP2_MeshShaderGeco_Merge_7_debug.exp
^C:\Users\gabor\Downloads\of_v0.10.1_vs2017_release\apps\myApps_2\CP2_MeshShaderGeco_Merge_9\CP2_MeshShaderGeco_Merge_7.vcxproj
C:\Users\gabor\Downloads\of_v0.10.1_vs2017_release\apps\myApps_2\CP2_MeshShaderGeco_Merge_9\bin\CP2_MeshShaderGeco_Merge_7_debug.lib
C:\Users\gabor\Downloads\of_v0.10.1_vs2017_release\apps\myApps_2\CP2_MeshShaderGeco_Merge_9\bin\CP2_MeshShaderGeco_Merge_7_debug.exp
^C:\Users\gabor\Downloads\of_v0.10.1_vs2017_release\apps\myApps_2\CP2_MeshShaderGeco_Merge_9\CP2_MeshShaderGeco_Merge_7.vcxproj
C:\Users\gabor\Downloads\of_v0.10.1_vs2017_release\apps\myApps_2\CP2_MeshShaderGeco_Merge_9\bin\CP2_MeshShaderGeco_Merge_7_debug.lib
C:\Users\gabor\Downloads\of_v0.10.1_vs2017_release\apps\myApps_2\CP2_MeshShaderGeco_Merge_9\bin\CP2_MeshShaderGeco_Merge_7_debug.exp
