^C:\USERS\GABOR\DOWNLOADS\OF_V0.10.1_VS2017_RELEASE\APPS\MYAPPS_2\CP2_MESHSHADERGECO_MERGE_7\ICON.RC
C:\USERS\GABOR\DOWNLOADS\OF_V0.10.1_VS2017_RELEASE\APPS\MYAPPS_2\CP2_MESHSHADERGECO_MERGE_7\OBJ\WIN32\DEBUG\ICON.RES
^C:\USERS\GABOR\DOWNLOADS\OF_V0.10.1_VS2017_RELEASE\APPS\MYAPPS_2\CP2_MESHSHADERGECO_MERGE_9\ICON.RC
C:\USERS\GABOR\DOWNLOADS\OF_V0.10.1_VS2017_RELEASE\APPS\MYAPPS_2\CP2_MESHSHADERGECO_MERGE_9\OBJ\WIN32\DEBUG\ICON.RES
^C:\USERS\GABOR\DOWNLOADS\OF_V0.10.1_VS2017_RELEASE\APPS\MYAPPS_2\CP2_MESHSHADERGECO_MERGE_10\ICON.RC
C:\USERS\GABOR\DOWNLOADS\OF_V0.10.1_VS2017_RELEASE\APPS\MYAPPS_2\CP2_MESHSHADERGECO_MERGE_10\OBJ\WIN32\DEBUG\ICON.RES
^C:\USERS\GABOR\DOWNLOADS\OF_V0.10.1_VS2017_RELEASE\APPS\MYAPPS_2\CP2_MESHSHADERGECO_MERGE_11\ICON.RC
C:\USERS\GABOR\DOWNLOADS\OF_V0.10.1_VS2017_RELEASE\APPS\MYAPPS_2\CP2_MESHSHADERGECO_MERGE_11\OBJ\WIN32\DEBUG\ICON.RES
