^C:\USERS\GABOR\DOWNLOADS\OF_V0.10.1_VS2017_RELEASE\APPS\MYAPPS\CP2_MERGEOFVIDEOEFFECTS\ICON.RC
C:\USERS\GABOR\DOWNLOADS\OF_V0.10.1_VS2017_RELEASE\LIBS\OPENFRAMEWORKSCOMPILED\PROJECT\VS\ICON_DEBUG.ICO
^C:\USERS\GABOR\DOWNLOADS\OF_V0.10.1_VS2017_RELEASE\APPS\MYAPPS\CP2_MERGEOFVIDEOEFFECTS_2\ICON.RC
C:\USERS\GABOR\DOWNLOADS\OF_V0.10.1_VS2017_RELEASE\LIBS\OPENFRAMEWORKSCOMPILED\PROJECT\VS\ICON_DEBUG.ICO
^C:\USERS\GABOR\DOWNLOADS\OF_V0.10.1_VS2017_RELEASE\APPS\MYAPPS\CP2_MERGEOFVIDEOEFFECTS_3\ICON.RC
C:\USERS\GABOR\DOWNLOADS\OF_V0.10.1_VS2017_RELEASE\LIBS\OPENFRAMEWORKSCOMPILED\PROJECT\VS\ICON_DEBUG.ICO
^C:\USERS\GABOR\DOWNLOADS\OF_V0.10.1_VS2017_RELEASE\APPS\MYAPPS\CP2_MERGEOFVIDEOEFFECTS_4\ICON.RC
C:\USERS\GABOR\DOWNLOADS\OF_V0.10.1_VS2017_RELEASE\LIBS\OPENFRAMEWORKSCOMPILED\PROJECT\VS\ICON_DEBUG.ICO
