^C:\USERS\GABOR\DOWNLOADS\OF_V0.10.1_VS2017_RELEASE\ADDONS\OFXCV\LIBS\CLD\SRC\ETF.CPP|C:\USERS\GABOR\DOWNLOADS\OF_V0.10.1_VS2017_RELEASE\ADDONS\OFXCV\LIBS\CLD\SRC\FDOG.CPP|C:\USERS\GABOR\DOWNLOADS\OF_V0.10.1_VS2017_RELEASE\ADDONS\OFXCV\LIBS\OFXCV\SRC\CALIBRATION.CPP|C:\USERS\GABOR\DOWNLOADS\OF_V0.10.1_VS2017_RELEASE\ADDONS\OFXCV\LIBS\OFXCV\SRC\CONTOURFINDER.CPP|C:\USERS\GABOR\DOWNLOADS\OF_V0.10.1_VS2017_RELEASE\ADDONS\OFXCV\LIBS\OFXCV\SRC\DISTANCE.CPP|C:\USERS\GABOR\DOWNLOADS\OF_V0.10.1_VS2017_RELEASE\ADDONS\OFXCV\LIBS\OFXCV\SRC\FLOW.CPP|C:\USERS\GABOR\DOWNLOADS\OF_V0.10.1_VS2017_RELEASE\ADDONS\OFXCV\LIBS\OFXCV\SRC\HELPERS.CPP|C:\USERS\GABOR\DOWNLOADS\OF_V0.10.1_VS2017_RELEASE\ADDONS\OFXCV\LIBS\OFXCV\SRC\KALMAN.CPP|C:\USERS\GABOR\DOWNLOADS\OF_V0.10.1_VS2017_RELEASE\ADDONS\OFXCV\LIBS\OFXCV\SRC\OBJECTFINDER.CPP|C:\USERS\GABOR\DOWNLOADS\OF_V0.10.1_VS2017_RELEASE\ADDONS\OFXCV\LIBS\OFXCV\SRC\RUNNINGBACKGROUND.CPP|C:\USERS\GABOR\DOWNLOADS\OF_V0.10.1_VS2017_RELEASE\ADDONS\OFXCV\LIBS\OFXCV\SRC\TRACKER.CPP|C:\USERS\GABOR\DOWNLOADS\OF_V0.10.1_VS2017_RELEASE\ADDONS\OFXCV\LIBS\OFXCV\SRC\UTILITIES.CPP|C:\USERS\GABOR\DOWNLOADS\OF_V0.10.1_VS2017_RELEASE\ADDONS\OFXCV\LIBS\OFXCV\SRC\WRAPPERS.CPP|C:\USERS\GABOR\DOWNLOADS\OF_V0.10.1_VS2017_RELEASE\ADDONS\OFXGUI\SRC\OFXBASEGUI.CPP|C:\USERS\GABOR\DOWNLOADS\OF_V0.10.1_VS2017_RELEASE\ADDONS\OFXGUI\SRC\OFXBUTTON.CPP|C:\USERS\GABOR\DOWNLOADS\OF_V0.10.1_VS2017_RELEASE\ADDONS\OFXGUI\SRC\OFXCOLORPICKER.CPP|C:\USERS\GABOR\DOWNLOADS\OF_V0.10.1_VS2017_RELEASE\ADDONS\OFXGUI\SRC\OFXGUIGROUP.CPP|C:\USERS\GABOR\DOWNLOADS\OF_V0.10.1_VS2017_RELEASE\ADDONS\OFXGUI\SRC\OFXINPUTFIELD.CPP|C:\USERS\GABOR\DOWNLOADS\OF_V0.10.1_VS2017_RELEASE\ADDONS\OFXGUI\SRC\OFXLABEL.CPP|C:\USERS\GABOR\DOWNLOADS\OF_V0.10.1_VS2017_RELEASE\ADDONS\OFXGUI\SRC\OFXPANEL.CPP|C:\USERS\GABOR\DOWNLOADS\OF_V0.10.1_VS2017_RELEASE\ADDONS\OFXGUI\SRC\OFXSLIDER.CPP|C:\USERS\GABOR\DOWNLOADS\OF_V0.10.1_VS2017_RELEASE\ADDONS\OFXGUI\SRC\OFXSLIDERGROUP.CPP|C:\USERS\GABOR\DOWNLOADS\OF_V0.10.1_VS2017_RELEASE\ADDONS\OFXGUI\SRC\OFXTOGGLE.CPP|C:\USERS\GABOR\DOWNLOADS\OF_V0.10.1_VS2017_RELEASE\ADDONS\OFXMAXIM\LIBS\FFT.CPP|C:\USERS\GABOR\DOWNLOADS\OF_V0.10.1_VS2017_RELEASE\ADDONS\OFXMAXIM\LIBS\MAXIATOMS.CPP|C:\USERS\GABOR\DOWNLOADS\OF_V0.10.1_VS2017_RELEASE\ADDONS\OFXMAXIM\LIBS\MAXIBARK.CPP|C:\USERS\GABOR\DOWNLOADS\OF_V0.10.1_VS2017_RELEASE\ADDONS\OFXMAXIM\LIBS\MAXIFFT.CPP|C:\USERS\GABOR\DOWNLOADS\OF_V0.10.1_VS2017_RELEASE\ADDONS\OFXMAXIM\LIBS\MAXIGRAINS.CPP|C:\USERS\GABOR\DOWNLOADS\OF_V0.10.1_VS2017_RELEASE\ADDONS\OFXMAXIM\LIBS\MAXIMFCC.CPP|C:\USERS\GABOR\DOWNLOADS\OF_V0.10.1_VS2017_RELEASE\ADDONS\OFXMAXIM\LIBS\MAXIMILIAN.CPP|C:\USERS\GABOR\DOWNLOADS\OF_V0.10.1_VS2017_RELEASE\ADDONS\OFXMAXIM\LIBS\STB_VORBIS.C|C:\USERS\GABOR\DOWNLOADS\OF_V0.10.1_VS2017_RELEASE\ADDONS\OFXOPENCV\SRC\OFXCVCOLORIMAGE.CPP|C:\USERS\GABOR\DOWNLOADS\OF_V0.10.1_VS2017_RELEASE\ADDONS\OFXOPENCV\SRC\OFXCVCONTOURFINDER.CPP|C:\USERS\GABOR\DOWNLOADS\OF_V0.10.1_VS2017_RELEASE\ADDONS\OFXOPENCV\SRC\OFXCVFLOATIMAGE.CPP|C:\USERS\GABOR\DOWNLOADS\OF_V0.10.1_VS2017_RELEASE\ADDONS\OFXOPENCV\SRC\OFXCVGRAYSCALEIMAGE.CPP|C:\USERS\GABOR\DOWNLOADS\OF_V0.10.1_VS2017_RELEASE\ADDONS\OFXOPENCV\SRC\OFXCVHAARFINDER.CPP|C:\USERS\GABOR\DOWNLOADS\OF_V0.10.1_VS2017_RELEASE\ADDONS\OFXOPENCV\SRC\OFXCVIMAGE.CPP|C:\USERS\GABOR\DOWNLOADS\OF_V0.10.1_VS2017_RELEASE\ADDONS\OFXOPENCV\SRC\OFXCVSHORTIMAGE.CPP|C:\USERS\GABOR\DOWNLOADS\OF_V0.10.1_VS2017_RELEASE\ADDONS\OFXVECTORGRAPHICS\LIBS\CREEPS.CPP|C:\USERS\GABOR\DOWNLOADS\OF_V0.10.1_VS2017_RELEASE\ADDONS\OFXVECTORGRAPHICS\SRC\OFXVECTORGRAPHICS.CPP|C:\USERS\GABOR\DOWNLOADS\OF_V0.10.1_VS2017_RELEASE\APPS\MYAPPS\CP2_MERGEOFVIDEOEFFECTS\SRC\MAIN.CPP|C:\USERS\GABOR\DOWNLOADS\OF_V0.10.1_VS2017_RELEASE\APPS\MYAPPS\CP2_MERGEOFVIDEOEFFECTS\SRC\OFAPP.CPP
C:\USERS\GABOR\DOWNLOADS\OF_V0.10.1_VS2017_RELEASE\APPS\MYAPPS\CP2_MERGEOFVIDEOEFFECTS\OBJ\X64\DEBUG\DISTANCE.OBJ
C:\USERS\GABOR\DOWNLOADS\OF_V0.10.1_VS2017_RELEASE\APPS\MYAPPS\CP2_MERGEOFVIDEOEFFECTS\OBJ\X64\DEBUG\HELPERS.OBJ
C:\USERS\GABOR\DOWNLOADS\OF_V0.10.1_VS2017_RELEASE\APPS\MYAPPS\CP2_MERGEOFVIDEOEFFECTS\OBJ\X64\DEBUG\RUNNINGBACKGROUND.OBJ
C:\USERS\GABOR\DOWNLOADS\OF_V0.10.1_VS2017_RELEASE\APPS\MYAPPS\CP2_MERGEOFVIDEOEFFECTS\OBJ\X64\DEBUG\OFXCOLORPICKER.OBJ
C:\USERS\GABOR\DOWNLOADS\OF_V0.10.1_VS2017_RELEASE\APPS\MYAPPS\CP2_MERGEOFVIDEOEFFECTS\OBJ\X64\DEBUG\MAXIBARK.OBJ
C:\USERS\GABOR\DOWNLOADS\OF_V0.10.1_VS2017_RELEASE\APPS\MYAPPS\CP2_MERGEOFVIDEOEFFECTS\OBJ\X64\DEBUG\MAXIGRAINS.OBJ
C:\USERS\GABOR\DOWNLOADS\OF_V0.10.1_VS2017_RELEASE\APPS\MYAPPS\CP2_MERGEOFVIDEOEFFECTS\OBJ\X64\DEBUG\MAXIMILIAN.OBJ
C:\USERS\GABOR\DOWNLOADS\OF_V0.10.1_VS2017_RELEASE\APPS\MYAPPS\CP2_MERGEOFVIDEOEFFECTS\OBJ\X64\DEBUG\OFXCVFLOATIMAGE.OBJ
C:\USERS\GABOR\DOWNLOADS\OF_V0.10.1_VS2017_RELEASE\APPS\MYAPPS\CP2_MERGEOFVIDEOEFFECTS\OBJ\X64\DEBUG\CALIBRATION.OBJ
C:\USERS\GABOR\DOWNLOADS\OF_V0.10.1_VS2017_RELEASE\APPS\MYAPPS\CP2_MERGEOFVIDEOEFFECTS\OBJ\X64\DEBUG\TRACKER.OBJ
C:\USERS\GABOR\DOWNLOADS\OF_V0.10.1_VS2017_RELEASE\APPS\MYAPPS\CP2_MERGEOFVIDEOEFFECTS\OBJ\X64\DEBUG\OFXGUIGROUP.OBJ
C:\USERS\GABOR\DOWNLOADS\OF_V0.10.1_VS2017_RELEASE\APPS\MYAPPS\CP2_MERGEOFVIDEOEFFECTS\OBJ\X64\DEBUG\OFXCVGRAYSCALEIMAGE.OBJ
C:\USERS\GABOR\DOWNLOADS\OF_V0.10.1_VS2017_RELEASE\APPS\MYAPPS\CP2_MERGEOFVIDEOEFFECTS\OBJ\X64\DEBUG\FLOW.OBJ
C:\USERS\GABOR\DOWNLOADS\OF_V0.10.1_VS2017_RELEASE\APPS\MYAPPS\CP2_MERGEOFVIDEOEFFECTS\OBJ\X64\DEBUG\OBJECTFINDER.OBJ
C:\USERS\GABOR\DOWNLOADS\OF_V0.10.1_VS2017_RELEASE\APPS\MYAPPS\CP2_MERGEOFVIDEOEFFECTS\OBJ\X64\DEBUG\OFXLABEL.OBJ
C:\USERS\GABOR\DOWNLOADS\OF_V0.10.1_VS2017_RELEASE\APPS\MYAPPS\CP2_MERGEOFVIDEOEFFECTS\OBJ\X64\DEBUG\FFT.OBJ
C:\USERS\GABOR\DOWNLOADS\OF_V0.10.1_VS2017_RELEASE\APPS\MYAPPS\CP2_MERGEOFVIDEOEFFECTS\OBJ\X64\DEBUG\MAXIATOMS.OBJ
C:\USERS\GABOR\DOWNLOADS\OF_V0.10.1_VS2017_RELEASE\APPS\MYAPPS\CP2_MERGEOFVIDEOEFFECTS\OBJ\X64\DEBUG\STB_VORBIS.OBJ
C:\USERS\GABOR\DOWNLOADS\OF_V0.10.1_VS2017_RELEASE\APPS\MYAPPS\CP2_MERGEOFVIDEOEFFECTS\OBJ\X64\DEBUG\OFXCVCONTOURFINDER.OBJ
C:\USERS\GABOR\DOWNLOADS\OF_V0.10.1_VS2017_RELEASE\APPS\MYAPPS\CP2_MERGEOFVIDEOEFFECTS\OBJ\X64\DEBUG\FDOG.OBJ
C:\USERS\GABOR\DOWNLOADS\OF_V0.10.1_VS2017_RELEASE\APPS\MYAPPS\CP2_MERGEOFVIDEOEFFECTS\OBJ\X64\DEBUG\UTILITIES.OBJ
C:\USERS\GABOR\DOWNLOADS\OF_V0.10.1_VS2017_RELEASE\APPS\MYAPPS\CP2_MERGEOFVIDEOEFFECTS\OBJ\X64\DEBUG\OFXPANEL.OBJ
C:\USERS\GABOR\DOWNLOADS\OF_V0.10.1_VS2017_RELEASE\APPS\MYAPPS\CP2_MERGEOFVIDEOEFFECTS\OBJ\X64\DEBUG\MAXIFFT.OBJ
C:\USERS\GABOR\DOWNLOADS\OF_V0.10.1_VS2017_RELEASE\APPS\MYAPPS\CP2_MERGEOFVIDEOEFFECTS\OBJ\X64\DEBUG\MAXIMFCC.OBJ
C:\USERS\GABOR\DOWNLOADS\OF_V0.10.1_VS2017_RELEASE\APPS\MYAPPS\CP2_MERGEOFVIDEOEFFECTS\OBJ\X64\DEBUG\OFXCVCOLORIMAGE.OBJ
C:\USERS\GABOR\DOWNLOADS\OF_V0.10.1_VS2017_RELEASE\APPS\MYAPPS\CP2_MERGEOFVIDEOEFFECTS\OBJ\X64\DEBUG\CREEPS.OBJ
C:\USERS\GABOR\DOWNLOADS\OF_V0.10.1_VS2017_RELEASE\APPS\MYAPPS\CP2_MERGEOFVIDEOEFFECTS\OBJ\X64\DEBUG\CONTOURFINDER.OBJ
C:\USERS\GABOR\DOWNLOADS\OF_V0.10.1_VS2017_RELEASE\APPS\MYAPPS\CP2_MERGEOFVIDEOEFFECTS\OBJ\X64\DEBUG\KALMAN.OBJ
C:\USERS\GABOR\DOWNLOADS\OF_V0.10.1_VS2017_RELEASE\APPS\MYAPPS\CP2_MERGEOFVIDEOEFFECTS\OBJ\X64\DEBUG\OFXINPUTFIELD.OBJ
C:\USERS\GABOR\DOWNLOADS\OF_V0.10.1_VS2017_RELEASE\APPS\MYAPPS\CP2_MERGEOFVIDEOEFFECTS\OBJ\X64\DEBUG\OFXCVSHORTIMAGE.OBJ
C:\USERS\GABOR\DOWNLOADS\OF_V0.10.1_VS2017_RELEASE\APPS\MYAPPS\CP2_MERGEOFVIDEOEFFECTS\OBJ\X64\DEBUG\ETF.OBJ
C:\USERS\GABOR\DOWNLOADS\OF_V0.10.1_VS2017_RELEASE\APPS\MYAPPS\CP2_MERGEOFVIDEOEFFECTS\OBJ\X64\DEBUG\WRAPPERS.OBJ
C:\USERS\GABOR\DOWNLOADS\OF_V0.10.1_VS2017_RELEASE\APPS\MYAPPS\CP2_MERGEOFVIDEOEFFECTS\OBJ\X64\DEBUG\OFXSLIDER.OBJ
C:\USERS\GABOR\DOWNLOADS\OF_V0.10.1_VS2017_RELEASE\APPS\MYAPPS\CP2_MERGEOFVIDEOEFFECTS\OBJ\X64\DEBUG\OFXCVIMAGE.OBJ
C:\USERS\GABOR\DOWNLOADS\OF_V0.10.1_VS2017_RELEASE\APPS\MYAPPS\CP2_MERGEOFVIDEOEFFECTS\OBJ\X64\DEBUG\MAIN.OBJ
C:\USERS\GABOR\DOWNLOADS\OF_V0.10.1_VS2017_RELEASE\APPS\MYAPPS\CP2_MERGEOFVIDEOEFFECTS\OBJ\X64\DEBUG\OFXBASEGUI.OBJ
C:\USERS\GABOR\DOWNLOADS\OF_V0.10.1_VS2017_RELEASE\APPS\MYAPPS\CP2_MERGEOFVIDEOEFFECTS\OBJ\X64\DEBUG\OFXTOGGLE.OBJ
C:\USERS\GABOR\DOWNLOADS\OF_V0.10.1_VS2017_RELEASE\APPS\MYAPPS\CP2_MERGEOFVIDEOEFFECTS\OBJ\X64\DEBUG\OFXCVHAARFINDER.OBJ
C:\USERS\GABOR\DOWNLOADS\OF_V0.10.1_VS2017_RELEASE\APPS\MYAPPS\CP2_MERGEOFVIDEOEFFECTS\OBJ\X64\DEBUG\OFAPP.OBJ
C:\USERS\GABOR\DOWNLOADS\OF_V0.10.1_VS2017_RELEASE\APPS\MYAPPS\CP2_MERGEOFVIDEOEFFECTS\OBJ\X64\DEBUG\OFXBUTTON.OBJ
C:\USERS\GABOR\DOWNLOADS\OF_V0.10.1_VS2017_RELEASE\APPS\MYAPPS\CP2_MERGEOFVIDEOEFFECTS\OBJ\X64\DEBUG\OFXSLIDERGROUP.OBJ
C:\USERS\GABOR\DOWNLOADS\OF_V0.10.1_VS2017_RELEASE\APPS\MYAPPS\CP2_MERGEOFVIDEOEFFECTS\OBJ\X64\DEBUG\OFXVECTORGRAPHICS.OBJ
^C:\USERS\GABOR\DOWNLOADS\OF_V0.10.1_VS2017_RELEASE\ADDONS\OFXCV\LIBS\CLD\SRC\ETF.CPP
C:\USERS\GABOR\DOWNLOADS\OF_V0.10.1_VS2017_RELEASE\APPS\MYAPPS\CP2_MERGEOFVIDEOEFFECTS\OBJ\X64\DEBUG\VC141.PDB
^C:\USERS\GABOR\DOWNLOADS\OF_V0.10.1_VS2017_RELEASE\ADDONS\OFXCV\LIBS\CLD\SRC\FDOG.CPP
C:\USERS\GABOR\DOWNLOADS\OF_V0.10.1_VS2017_RELEASE\APPS\MYAPPS\CP2_MERGEOFVIDEOEFFECTS\OBJ\X64\DEBUG\VC141.PDB
^C:\USERS\GABOR\DOWNLOADS\OF_V0.10.1_VS2017_RELEASE\ADDONS\OFXCV\LIBS\OFXCV\SRC\CALIBRATION.CPP
C:\USERS\GABOR\DOWNLOADS\OF_V0.10.1_VS2017_RELEASE\APPS\MYAPPS\CP2_MERGEOFVIDEOEFFECTS\OBJ\X64\DEBUG\VC141.PDB
^C:\USERS\GABOR\DOWNLOADS\OF_V0.10.1_VS2017_RELEASE\ADDONS\OFXCV\LIBS\OFXCV\SRC\CONTOURFINDER.CPP
C:\USERS\GABOR\DOWNLOADS\OF_V0.10.1_VS2017_RELEASE\APPS\MYAPPS\CP2_MERGEOFVIDEOEFFECTS\OBJ\X64\DEBUG\VC141.PDB
^C:\USERS\GABOR\DOWNLOADS\OF_V0.10.1_VS2017_RELEASE\ADDONS\OFXCV\LIBS\OFXCV\SRC\DISTANCE.CPP
C:\USERS\GABOR\DOWNLOADS\OF_V0.10.1_VS2017_RELEASE\APPS\MYAPPS\CP2_MERGEOFVIDEOEFFECTS\OBJ\X64\DEBUG\VC141.PDB
^C:\USERS\GABOR\DOWNLOADS\OF_V0.10.1_VS2017_RELEASE\ADDONS\OFXCV\LIBS\OFXCV\SRC\FLOW.CPP
C:\USERS\GABOR\DOWNLOADS\OF_V0.10.1_VS2017_RELEASE\APPS\MYAPPS\CP2_MERGEOFVIDEOEFFECTS\OBJ\X64\DEBUG\VC141.PDB
^C:\USERS\GABOR\DOWNLOADS\OF_V0.10.1_VS2017_RELEASE\ADDONS\OFXCV\LIBS\OFXCV\SRC\HELPERS.CPP
C:\USERS\GABOR\DOWNLOADS\OF_V0.10.1_VS2017_RELEASE\APPS\MYAPPS\CP2_MERGEOFVIDEOEFFECTS\OBJ\X64\DEBUG\VC141.PDB
^C:\USERS\GABOR\DOWNLOADS\OF_V0.10.1_VS2017_RELEASE\ADDONS\OFXCV\LIBS\OFXCV\SRC\KALMAN.CPP
C:\USERS\GABOR\DOWNLOADS\OF_V0.10.1_VS2017_RELEASE\APPS\MYAPPS\CP2_MERGEOFVIDEOEFFECTS\OBJ\X64\DEBUG\VC141.PDB
^C:\USERS\GABOR\DOWNLOADS\OF_V0.10.1_VS2017_RELEASE\ADDONS\OFXCV\LIBS\OFXCV\SRC\OBJECTFINDER.CPP
C:\USERS\GABOR\DOWNLOADS\OF_V0.10.1_VS2017_RELEASE\APPS\MYAPPS\CP2_MERGEOFVIDEOEFFECTS\OBJ\X64\DEBUG\VC141.PDB
^C:\USERS\GABOR\DOWNLOADS\OF_V0.10.1_VS2017_RELEASE\ADDONS\OFXCV\LIBS\OFXCV\SRC\RUNNINGBACKGROUND.CPP
C:\USERS\GABOR\DOWNLOADS\OF_V0.10.1_VS2017_RELEASE\APPS\MYAPPS\CP2_MERGEOFVIDEOEFFECTS\OBJ\X64\DEBUG\VC141.PDB
^C:\USERS\GABOR\DOWNLOADS\OF_V0.10.1_VS2017_RELEASE\ADDONS\OFXCV\LIBS\OFXCV\SRC\TRACKER.CPP
C:\USERS\GABOR\DOWNLOADS\OF_V0.10.1_VS2017_RELEASE\APPS\MYAPPS\CP2_MERGEOFVIDEOEFFECTS\OBJ\X64\DEBUG\VC141.PDB
^C:\USERS\GABOR\DOWNLOADS\OF_V0.10.1_VS2017_RELEASE\ADDONS\OFXCV\LIBS\OFXCV\SRC\UTILITIES.CPP
C:\USERS\GABOR\DOWNLOADS\OF_V0.10.1_VS2017_RELEASE\APPS\MYAPPS\CP2_MERGEOFVIDEOEFFECTS\OBJ\X64\DEBUG\VC141.PDB
^C:\USERS\GABOR\DOWNLOADS\OF_V0.10.1_VS2017_RELEASE\ADDONS\OFXCV\LIBS\OFXCV\SRC\WRAPPERS.CPP
C:\USERS\GABOR\DOWNLOADS\OF_V0.10.1_VS2017_RELEASE\APPS\MYAPPS\CP2_MERGEOFVIDEOEFFECTS\OBJ\X64\DEBUG\VC141.PDB
^C:\USERS\GABOR\DOWNLOADS\OF_V0.10.1_VS2017_RELEASE\ADDONS\OFXGUI\SRC\OFXBASEGUI.CPP
C:\USERS\GABOR\DOWNLOADS\OF_V0.10.1_VS2017_RELEASE\APPS\MYAPPS\CP2_MERGEOFVIDEOEFFECTS\OBJ\X64\DEBUG\VC141.PDB
^C:\USERS\GABOR\DOWNLOADS\OF_V0.10.1_VS2017_RELEASE\ADDONS\OFXGUI\SRC\OFXBUTTON.CPP
C:\USERS\GABOR\DOWNLOADS\OF_V0.10.1_VS2017_RELEASE\APPS\MYAPPS\CP2_MERGEOFVIDEOEFFECTS\OBJ\X64\DEBUG\VC141.PDB
^C:\USERS\GABOR\DOWNLOADS\OF_V0.10.1_VS2017_RELEASE\ADDONS\OFXGUI\SRC\OFXCOLORPICKER.CPP
C:\USERS\GABOR\DOWNLOADS\OF_V0.10.1_VS2017_RELEASE\APPS\MYAPPS\CP2_MERGEOFVIDEOEFFECTS\OBJ\X64\DEBUG\VC141.PDB
^C:\USERS\GABOR\DOWNLOADS\OF_V0.10.1_VS2017_RELEASE\ADDONS\OFXGUI\SRC\OFXGUIGROUP.CPP
C:\USERS\GABOR\DOWNLOADS\OF_V0.10.1_VS2017_RELEASE\APPS\MYAPPS\CP2_MERGEOFVIDEOEFFECTS\OBJ\X64\DEBUG\VC141.PDB
^C:\USERS\GABOR\DOWNLOADS\OF_V0.10.1_VS2017_RELEASE\ADDONS\OFXGUI\SRC\OFXINPUTFIELD.CPP
C:\USERS\GABOR\DOWNLOADS\OF_V0.10.1_VS2017_RELEASE\APPS\MYAPPS\CP2_MERGEOFVIDEOEFFECTS\OBJ\X64\DEBUG\VC141.PDB
^C:\USERS\GABOR\DOWNLOADS\OF_V0.10.1_VS2017_RELEASE\ADDONS\OFXGUI\SRC\OFXLABEL.CPP
C:\USERS\GABOR\DOWNLOADS\OF_V0.10.1_VS2017_RELEASE\APPS\MYAPPS\CP2_MERGEOFVIDEOEFFECTS\OBJ\X64\DEBUG\VC141.PDB
^C:\USERS\GABOR\DOWNLOADS\OF_V0.10.1_VS2017_RELEASE\ADDONS\OFXGUI\SRC\OFXPANEL.CPP
C:\USERS\GABOR\DOWNLOADS\OF_V0.10.1_VS2017_RELEASE\APPS\MYAPPS\CP2_MERGEOFVIDEOEFFECTS\OBJ\X64\DEBUG\VC141.PDB
^C:\USERS\GABOR\DOWNLOADS\OF_V0.10.1_VS2017_RELEASE\ADDONS\OFXGUI\SRC\OFXSLIDER.CPP
C:\USERS\GABOR\DOWNLOADS\OF_V0.10.1_VS2017_RELEASE\APPS\MYAPPS\CP2_MERGEOFVIDEOEFFECTS\OBJ\X64\DEBUG\VC141.PDB
^C:\USERS\GABOR\DOWNLOADS\OF_V0.10.1_VS2017_RELEASE\ADDONS\OFXGUI\SRC\OFXSLIDERGROUP.CPP
C:\USERS\GABOR\DOWNLOADS\OF_V0.10.1_VS2017_RELEASE\APPS\MYAPPS\CP2_MERGEOFVIDEOEFFECTS\OBJ\X64\DEBUG\VC141.PDB
^C:\USERS\GABOR\DOWNLOADS\OF_V0.10.1_VS2017_RELEASE\ADDONS\OFXGUI\SRC\OFXTOGGLE.CPP
C:\USERS\GABOR\DOWNLOADS\OF_V0.10.1_VS2017_RELEASE\APPS\MYAPPS\CP2_MERGEOFVIDEOEFFECTS\OBJ\X64\DEBUG\VC141.PDB
^C:\USERS\GABOR\DOWNLOADS\OF_V0.10.1_VS2017_RELEASE\ADDONS\OFXMAXIM\LIBS\FFT.CPP
C:\USERS\GABOR\DOWNLOADS\OF_V0.10.1_VS2017_RELEASE\APPS\MYAPPS\CP2_MERGEOFVIDEOEFFECTS\OBJ\X64\DEBUG\VC141.PDB
^C:\USERS\GABOR\DOWNLOADS\OF_V0.10.1_VS2017_RELEASE\ADDONS\OFXMAXIM\LIBS\MAXIATOMS.CPP
C:\USERS\GABOR\DOWNLOADS\OF_V0.10.1_VS2017_RELEASE\APPS\MYAPPS\CP2_MERGEOFVIDEOEFFECTS\OBJ\X64\DEBUG\VC141.PDB
^C:\USERS\GABOR\DOWNLOADS\OF_V0.10.1_VS2017_RELEASE\ADDONS\OFXMAXIM\LIBS\MAXIBARK.CPP
C:\USERS\GABOR\DOWNLOADS\OF_V0.10.1_VS2017_RELEASE\APPS\MYAPPS\CP2_MERGEOFVIDEOEFFECTS\OBJ\X64\DEBUG\VC141.PDB
^C:\USERS\GABOR\DOWNLOADS\OF_V0.10.1_VS2017_RELEASE\ADDONS\OFXMAXIM\LIBS\MAXIFFT.CPP
C:\USERS\GABOR\DOWNLOADS\OF_V0.10.1_VS2017_RELEASE\APPS\MYAPPS\CP2_MERGEOFVIDEOEFFECTS\OBJ\X64\DEBUG\VC141.PDB
^C:\USERS\GABOR\DOWNLOADS\OF_V0.10.1_VS2017_RELEASE\ADDONS\OFXMAXIM\LIBS\MAXIGRAINS.CPP
C:\USERS\GABOR\DOWNLOADS\OF_V0.10.1_VS2017_RELEASE\APPS\MYAPPS\CP2_MERGEOFVIDEOEFFECTS\OBJ\X64\DEBUG\VC141.PDB
^C:\USERS\GABOR\DOWNLOADS\OF_V0.10.1_VS2017_RELEASE\ADDONS\OFXMAXIM\LIBS\MAXIMFCC.CPP
C:\USERS\GABOR\DOWNLOADS\OF_V0.10.1_VS2017_RELEASE\APPS\MYAPPS\CP2_MERGEOFVIDEOEFFECTS\OBJ\X64\DEBUG\VC141.PDB
^C:\USERS\GABOR\DOWNLOADS\OF_V0.10.1_VS2017_RELEASE\ADDONS\OFXMAXIM\LIBS\MAXIMILIAN.CPP
C:\USERS\GABOR\DOWNLOADS\OF_V0.10.1_VS2017_RELEASE\APPS\MYAPPS\CP2_MERGEOFVIDEOEFFECTS\OBJ\X64\DEBUG\VC141.PDB
^C:\USERS\GABOR\DOWNLOADS\OF_V0.10.1_VS2017_RELEASE\ADDONS\OFXMAXIM\LIBS\STB_VORBIS.C
C:\USERS\GABOR\DOWNLOADS\OF_V0.10.1_VS2017_RELEASE\APPS\MYAPPS\CP2_MERGEOFVIDEOEFFECTS\OBJ\X64\DEBUG\VC141.PDB
^C:\USERS\GABOR\DOWNLOADS\OF_V0.10.1_VS2017_RELEASE\ADDONS\OFXOPENCV\SRC\OFXCVCOLORIMAGE.CPP
C:\USERS\GABOR\DOWNLOADS\OF_V0.10.1_VS2017_RELEASE\APPS\MYAPPS\CP2_MERGEOFVIDEOEFFECTS\OBJ\X64\DEBUG\VC141.PDB
^C:\USERS\GABOR\DOWNLOADS\OF_V0.10.1_VS2017_RELEASE\ADDONS\OFXOPENCV\SRC\OFXCVCONTOURFINDER.CPP
C:\USERS\GABOR\DOWNLOADS\OF_V0.10.1_VS2017_RELEASE\APPS\MYAPPS\CP2_MERGEOFVIDEOEFFECTS\OBJ\X64\DEBUG\VC141.PDB
^C:\USERS\GABOR\DOWNLOADS\OF_V0.10.1_VS2017_RELEASE\ADDONS\OFXOPENCV\SRC\OFXCVFLOATIMAGE.CPP
C:\USERS\GABOR\DOWNLOADS\OF_V0.10.1_VS2017_RELEASE\APPS\MYAPPS\CP2_MERGEOFVIDEOEFFECTS\OBJ\X64\DEBUG\VC141.PDB
^C:\USERS\GABOR\DOWNLOADS\OF_V0.10.1_VS2017_RELEASE\ADDONS\OFXOPENCV\SRC\OFXCVGRAYSCALEIMAGE.CPP
C:\USERS\GABOR\DOWNLOADS\OF_V0.10.1_VS2017_RELEASE\APPS\MYAPPS\CP2_MERGEOFVIDEOEFFECTS\OBJ\X64\DEBUG\VC141.PDB
^C:\USERS\GABOR\DOWNLOADS\OF_V0.10.1_VS2017_RELEASE\ADDONS\OFXOPENCV\SRC\OFXCVHAARFINDER.CPP
C:\USERS\GABOR\DOWNLOADS\OF_V0.10.1_VS2017_RELEASE\APPS\MYAPPS\CP2_MERGEOFVIDEOEFFECTS\OBJ\X64\DEBUG\VC141.PDB
^C:\USERS\GABOR\DOWNLOADS\OF_V0.10.1_VS2017_RELEASE\ADDONS\OFXOPENCV\SRC\OFXCVIMAGE.CPP
C:\USERS\GABOR\DOWNLOADS\OF_V0.10.1_VS2017_RELEASE\APPS\MYAPPS\CP2_MERGEOFVIDEOEFFECTS\OBJ\X64\DEBUG\VC141.PDB
^C:\USERS\GABOR\DOWNLOADS\OF_V0.10.1_VS2017_RELEASE\ADDONS\OFXOPENCV\SRC\OFXCVSHORTIMAGE.CPP
C:\USERS\GABOR\DOWNLOADS\OF_V0.10.1_VS2017_RELEASE\APPS\MYAPPS\CP2_MERGEOFVIDEOEFFECTS\OBJ\X64\DEBUG\VC141.PDB
^C:\USERS\GABOR\DOWNLOADS\OF_V0.10.1_VS2017_RELEASE\ADDONS\OFXVECTORGRAPHICS\SRC\OFXVECTORGRAPHICS.CPP
C:\USERS\GABOR\DOWNLOADS\OF_V0.10.1_VS2017_RELEASE\APPS\MYAPPS\CP2_MERGEOFVIDEOEFFECTS\OBJ\X64\DEBUG\VC141.PDB
^C:\USERS\GABOR\DOWNLOADS\OF_V0.10.1_VS2017_RELEASE\ADDONS\OFXVECTORGRAPHICS\LIBS\CREEPS.CPP
C:\USERS\GABOR\DOWNLOADS\OF_V0.10.1_VS2017_RELEASE\APPS\MYAPPS\CP2_MERGEOFVIDEOEFFECTS\OBJ\X64\DEBUG\VC141.PDB
^C:\USERS\GABOR\DOWNLOADS\OF_V0.10.1_VS2017_RELEASE\APPS\MYAPPS\CP2_MERGEOFVIDEOEFFECTS\SRC\MAIN.CPP|C:\USERS\GABOR\DOWNLOADS\OF_V0.10.1_VS2017_RELEASE\APPS\MYAPPS\CP2_MERGEOFVIDEOEFFECTS\SRC\OFAPP.CPP
C:\USERS\GABOR\DOWNLOADS\OF_V0.10.1_VS2017_RELEASE\APPS\MYAPPS\CP2_MERGEOFVIDEOEFFECTS\OBJ\X64\DEBUG\MAIN.OBJ
C:\USERS\GABOR\DOWNLOADS\OF_V0.10.1_VS2017_RELEASE\APPS\MYAPPS\CP2_MERGEOFVIDEOEFFECTS\OBJ\X64\DEBUG\OFAPP.OBJ
^C:\USERS\GABOR\DOWNLOADS\OF_V0.10.1_VS2017_RELEASE\APPS\MYAPPS\CP2_MERGEOFVIDEOEFFECTS\SRC\MAIN.CPP
C:\USERS\GABOR\DOWNLOADS\OF_V0.10.1_VS2017_RELEASE\APPS\MYAPPS\CP2_MERGEOFVIDEOEFFECTS\OBJ\X64\DEBUG\VC141.PDB
^C:\USERS\GABOR\DOWNLOADS\OF_V0.10.1_VS2017_RELEASE\APPS\MYAPPS\CP2_MERGEOFVIDEOEFFECTS\SRC\OFAPP.CPP
C:\USERS\GABOR\DOWNLOADS\OF_V0.10.1_VS2017_RELEASE\APPS\MYAPPS\CP2_MERGEOFVIDEOEFFECTS\OBJ\X64\DEBUG\VC141.PDB
^C:\USERS\GABOR\DOWNLOADS\OF_V0.10.1_VS2017_RELEASE\APPS\MYAPPS\CP2_MERGEOFVIDEOEFFECTS_2\SRC\MAIN.CPP|C:\USERS\GABOR\DOWNLOADS\OF_V0.10.1_VS2017_RELEASE\APPS\MYAPPS\CP2_MERGEOFVIDEOEFFECTS_2\SRC\OFAPP.CPP
C:\USERS\GABOR\DOWNLOADS\OF_V0.10.1_VS2017_RELEASE\APPS\MYAPPS\CP2_MERGEOFVIDEOEFFECTS_2\OBJ\X64\DEBUG\OFAPP.OBJ
C:\USERS\GABOR\DOWNLOADS\OF_V0.10.1_VS2017_RELEASE\APPS\MYAPPS\CP2_MERGEOFVIDEOEFFECTS_2\OBJ\X64\DEBUG\MAIN.OBJ
^C:\USERS\GABOR\DOWNLOADS\OF_V0.10.1_VS2017_RELEASE\APPS\MYAPPS\CP2_MERGEOFVIDEOEFFECTS_2\SRC\DEMOPARTICLE.CPP|C:\USERS\GABOR\DOWNLOADS\OF_V0.10.1_VS2017_RELEASE\APPS\MYAPPS\CP2_MERGEOFVIDEOEFFECTS_2\SRC\MAIN.CPP|C:\USERS\GABOR\DOWNLOADS\OF_V0.10.1_VS2017_RELEASE\APPS\MYAPPS\CP2_MERGEOFVIDEOEFFECTS_2\SRC\OFAPP.CPP
C:\USERS\GABOR\DOWNLOADS\OF_V0.10.1_VS2017_RELEASE\APPS\MYAPPS\CP2_MERGEOFVIDEOEFFECTS_2\OBJ\X64\DEBUG\DEMOPARTICLE.OBJ
C:\USERS\GABOR\DOWNLOADS\OF_V0.10.1_VS2017_RELEASE\APPS\MYAPPS\CP2_MERGEOFVIDEOEFFECTS_2\OBJ\X64\DEBUG\MAIN.OBJ
^C:\USERS\GABOR\DOWNLOADS\OF_V0.10.1_VS2017_RELEASE\APPS\MYAPPS\CP2_MERGEOFVIDEOEFFECTS_2\SRC\DEMOPARTICLE.CPP
C:\USERS\GABOR\DOWNLOADS\OF_V0.10.1_VS2017_RELEASE\APPS\MYAPPS\CP2_MERGEOFVIDEOEFFECTS_2\OBJ\X64\DEBUG\DEMOPARTICLE.OBJ
^C:\USERS\GABOR\DOWNLOADS\OF_V0.10.1_VS2017_RELEASE\APPS\MYAPPS\CP2_MERGEOFVIDEOEFFECTS_2\SRC\MAIN.CPP
C:\USERS\GABOR\DOWNLOADS\OF_V0.10.1_VS2017_RELEASE\APPS\MYAPPS\CP2_MERGEOFVIDEOEFFECTS_2\OBJ\X64\DEBUG\MAIN.OBJ
^C:\USERS\GABOR\DOWNLOADS\OF_V0.10.1_VS2017_RELEASE\APPS\MYAPPS\CP2_MERGEOFVIDEOEFFECTS_2\SRC\OFAPP.CPP
C:\USERS\GABOR\DOWNLOADS\OF_V0.10.1_VS2017_RELEASE\APPS\MYAPPS\CP2_MERGEOFVIDEOEFFECTS_2\OBJ\X64\DEBUG\VC141.PDB
C:\USERS\GABOR\DOWNLOADS\OF_V0.10.1_VS2017_RELEASE\APPS\MYAPPS\CP2_MERGEOFVIDEOEFFECTS_2\OBJ\X64\DEBUG\OFAPP.OBJ
^C:\USERS\GABOR\DOWNLOADS\OF_V0.10.1_VS2017_RELEASE\APPS\MYAPPS\CP2_MERGEOFVIDEOEFFECTS_3\SRC\DEMOPARTICLE.CPP|C:\USERS\GABOR\DOWNLOADS\OF_V0.10.1_VS2017_RELEASE\APPS\MYAPPS\CP2_MERGEOFVIDEOEFFECTS_3\SRC\OFAPP.CPP
C:\USERS\GABOR\DOWNLOADS\OF_V0.10.1_VS2017_RELEASE\APPS\MYAPPS\CP2_MERGEOFVIDEOEFFECTS_3\OBJ\X64\DEBUG\DEMOPARTICLE.OBJ
C:\USERS\GABOR\DOWNLOADS\OF_V0.10.1_VS2017_RELEASE\APPS\MYAPPS\CP2_MERGEOFVIDEOEFFECTS_3\OBJ\X64\DEBUG\OFAPP.OBJ
^C:\USERS\GABOR\DOWNLOADS\OF_V0.10.1_VS2017_RELEASE\APPS\MYAPPS\CP2_MERGEOFVIDEOEFFECTS_3\SRC\DEMOPARTICLE.CPP|C:\USERS\GABOR\DOWNLOADS\OF_V0.10.1_VS2017_RELEASE\APPS\MYAPPS\CP2_MERGEOFVIDEOEFFECTS_3\SRC\MAIN.CPP|C:\USERS\GABOR\DOWNLOADS\OF_V0.10.1_VS2017_RELEASE\APPS\MYAPPS\CP2_MERGEOFVIDEOEFFECTS_3\SRC\OFAPP.CPP
C:\USERS\GABOR\DOWNLOADS\OF_V0.10.1_VS2017_RELEASE\APPS\MYAPPS\CP2_MERGEOFVIDEOEFFECTS_3\OBJ\X64\DEBUG\DEMOPARTICLE.OBJ
C:\USERS\GABOR\DOWNLOADS\OF_V0.10.1_VS2017_RELEASE\APPS\MYAPPS\CP2_MERGEOFVIDEOEFFECTS_3\OBJ\X64\DEBUG\OFAPP.OBJ
C:\USERS\GABOR\DOWNLOADS\OF_V0.10.1_VS2017_RELEASE\APPS\MYAPPS\CP2_MERGEOFVIDEOEFFECTS_3\OBJ\X64\DEBUG\MAIN.OBJ
^C:\USERS\GABOR\DOWNLOADS\OF_V0.10.1_VS2017_RELEASE\APPS\MYAPPS\CP2_MERGEOFVIDEOEFFECTS_3\SRC\DEMOPARTICLE.CPP
C:\USERS\GABOR\DOWNLOADS\OF_V0.10.1_VS2017_RELEASE\APPS\MYAPPS\CP2_MERGEOFVIDEOEFFECTS_3\OBJ\X64\DEBUG\VC141.PDB
^C:\USERS\GABOR\DOWNLOADS\OF_V0.10.1_VS2017_RELEASE\APPS\MYAPPS\CP2_MERGEOFVIDEOEFFECTS_3\SRC\MAIN.CPP
C:\USERS\GABOR\DOWNLOADS\OF_V0.10.1_VS2017_RELEASE\APPS\MYAPPS\CP2_MERGEOFVIDEOEFFECTS_3\OBJ\X64\DEBUG\VC141.PDB
^C:\USERS\GABOR\DOWNLOADS\OF_V0.10.1_VS2017_RELEASE\APPS\MYAPPS\CP2_MERGEOFVIDEOEFFECTS_3\SRC\OFAPP.CPP
C:\USERS\GABOR\DOWNLOADS\OF_V0.10.1_VS2017_RELEASE\APPS\MYAPPS\CP2_MERGEOFVIDEOEFFECTS_3\OBJ\X64\DEBUG\VC141.PDB
