^C:\USERS\GABOR\DOWNLOADS\OF_V0.10.1_VS2017_RELEASE\APPS\MYAPPS\CP2_MERGEOFVIDEOEFFECTS\ICON.RC
C:\USERS\GABOR\DOWNLOADS\OF_V0.10.1_VS2017_RELEASE\APPS\MYAPPS\CP2_MERGEOFVIDEOEFFECTS\OBJ\X64\DEBUG\ICON.RES
^C:\USERS\GABOR\DOWNLOADS\OF_V0.10.1_VS2017_RELEASE\APPS\MYAPPS\CP2_MERGEOFVIDEOEFFECTS_2\ICON.RC
C:\USERS\GABOR\DOWNLOADS\OF_V0.10.1_VS2017_RELEASE\APPS\MYAPPS\CP2_MERGEOFVIDEOEFFECTS_2\OBJ\X64\DEBUG\ICON.RES
